tb/tests/cpu.vcd
$version Generated by VerilatedVcd $end
$date Tue Dec  2 15:08:36 2025 $end
$timescale 1ps $end

 $scope module TOP $end
  $var wire 32 ^ a0 [31:0] $end
  $var wire  1 \ clk $end
  $var wire  1 ] rst $end
  $scope module cpu $end
   $var wire 32 g WIDTH [31:0] $end
   $var wire 32 ^ a0 [31:0] $end
   $var wire  4 S alu_control_d [3:0] $end
   $var wire 32 W alu_result_e [31:0] $end
   $var wire 32 W alu_result_m_o [31:0] $end
   $var wire  1 T alu_src_d $end
   $var wire  1 \ clk $end
   $var wire  3 H funct3_int [2:0] $end
   $var wire 32 U imm_ext_d [31:0] $end
   $var wire 32 F ins [31:0] $end
   $var wire  1 V jalr $end
   $var wire  1 Q mem_write_d $end
   $var wire  1 Q mem_write_e_o $end
   $var wire 32 D pc_d_o [31:0] $end
   $var wire 32 D pc_f [31:0] $end
   $var wire 32 E pc_plus_4_m_o [31:0] $end
   $var wire 32 E pc_plus_4d_o [31:0] $end
   $var wire 32 E pc_plus_4e_o [31:0] $end
   $var wire 32 E pc_plus_4f [31:0] $end
   $var wire  1 R pc_src $end
   $var wire 32 b pc_target_e [31:0] $end
   $var wire 32 _ rd_1 [31:0] $end
   $var wire 32 ` rd_2 [31:0] $end
   $var wire  5 G rd_d [4:0] $end
   $var wire  5 G rd_e_o [4:0] $end
   $var wire  5 G rd_m_o [4:0] $end
   $var wire  5 G rd_w_o [4:0] $end
   $var wire 32 c read_data_m [31:0] $end
   $var wire  1 O reg_write_d $end
   $var wire  1 O reg_write_e_o $end
   $var wire  1 O reg_write_m_o $end
   $var wire  1 O reg_write_w_o $end
   $var wire  2 P result_src_d [1:0] $end
   $var wire  2 P result_src_e_o [1:0] $end
   $var wire  2 P result_src_m_o [1:0] $end
   $var wire 32 d result_w [31:0] $end
   $var wire  1 ] rst $end
   $var wire 32 ` write_data_e [31:0] $end
   $var wire  1 a zero_e $end
   $scope module u_decode $end
    $var wire 32 g DATA_WIDTH [31:0] $end
    $var wire 32 ^ a0 [31:0] $end
    $var wire  4 S alu_control_d [3:0] $end
    $var wire  1 T alu_src_d $end
    $var wire  1 \ clk $end
    $var wire  3 H funct3 [2:0] $end
    $var wire 32 U imm_ext_d [31:0] $end
    $var wire  3 X imm_src_d [2:0] $end
    $var wire 32 F ins [31:0] $end
    $var wire  1 V jalr $end
    $var wire  1 Q mem_write_d $end
    $var wire 32 D pc_d_i [31:0] $end
    $var wire 32 D pc_d_o [31:0] $end
    $var wire 32 E pc_plus_4d_i [31:0] $end
    $var wire 32 E pc_plus_4d_o [31:0] $end
    $var wire  1 R pc_src $end
    $var wire 32 _ rd_1 [31:0] $end
    $var wire 32 ` rd_2 [31:0] $end
    $var wire  5 G rd_d [4:0] $end
    $var wire  5 G rd_w [4:0] $end
    $var wire  1 O reg_write_d $end
    $var wire  1 O reg_write_w $end
    $var wire  2 P result_src_d [1:0] $end
    $var wire 32 d result_w [31:0] $end
    $var wire  1 a zero_e $end
    $scope module cu $end
     $var wire 32 g WIDTH [31:0] $end
     $var wire  4 S alu_ctrl [3:0] $end
     $var wire  3 Y alu_logic [2:0] $end
     $var wire  1 T alu_src $end
     $var wire  1 a eq $end
     $var wire  3 H funct3 [2:0] $end
     $var wire  7 J funct7 [6:0] $end
     $var wire  3 X imm_src [2:0] $end
     $var wire 32 F ins [31:0] $end
     $var wire  1 V jalr $end
     $var wire  1 Q mem_write $end
     $var wire  7 I opcode [6:0] $end
     $var wire  1 R pc_src $end
     $var wire  1 O reg_write $end
     $var wire  2 P result_src [1:0] $end
     $scope module decoder_1 $end
      $var wire  3 Y alu_op [2:0] $end
      $var wire  1 T alu_src $end
      $var wire  1 a eq $end
      $var wire  3 X imm_src [2:0] $end
      $var wire  1 V jalr $end
      $var wire  1 Q mem_write $end
      $var wire  7 I opcode [6:0] $end
      $var wire  1 R pc_src $end
      $var wire  1 O reg_write $end
      $var wire  2 P result_src [1:0] $end
     $upscope $end
     $scope module decoder_2 $end
      $var wire  4 S alu_ctrl [3:0] $end
      $var wire  3 Y alu_op [2:0] $end
      $var wire  3 H funct3 [2:0] $end
      $var wire  1 L funct7_5 $end
      $var wire  1 K opcode_5 $end
     $upscope $end
    $upscope $end
    $scope module rf $end
     $var wire 32 h ADDRESS_WIDTH [31:0] $end
     $var wire 32 g D_WIDTH [31:0] $end
     $var wire 32 ^ a0 [31:0] $end
     $var wire  5 M a1 [4:0] $end
     $var wire  5 N a2 [4:0] $end
     $var wire  5 G a3 [4:0] $end
     $var wire  1 \ clk $end
     $var wire 32 d din [31:0] $end
     $var wire 32 _ dout1 [31:0] $end
     $var wire 32 ` dout2 [31:0] $end
     $var wire 32 $ ram_array[0] [31:0] $end
     $var wire 32 . ram_array[10] [31:0] $end
     $var wire 32 / ram_array[11] [31:0] $end
     $var wire 32 0 ram_array[12] [31:0] $end
     $var wire 32 1 ram_array[13] [31:0] $end
     $var wire 32 2 ram_array[14] [31:0] $end
     $var wire 32 3 ram_array[15] [31:0] $end
     $var wire 32 4 ram_array[16] [31:0] $end
     $var wire 32 5 ram_array[17] [31:0] $end
     $var wire 32 6 ram_array[18] [31:0] $end
     $var wire 32 7 ram_array[19] [31:0] $end
     $var wire 32 % ram_array[1] [31:0] $end
     $var wire 32 8 ram_array[20] [31:0] $end
     $var wire 32 9 ram_array[21] [31:0] $end
     $var wire 32 : ram_array[22] [31:0] $end
     $var wire 32 ; ram_array[23] [31:0] $end
     $var wire 32 < ram_array[24] [31:0] $end
     $var wire 32 = ram_array[25] [31:0] $end
     $var wire 32 > ram_array[26] [31:0] $end
     $var wire 32 ? ram_array[27] [31:0] $end
     $var wire 32 @ ram_array[28] [31:0] $end
     $var wire 32 A ram_array[29] [31:0] $end
     $var wire 32 & ram_array[2] [31:0] $end
     $var wire 32 B ram_array[30] [31:0] $end
     $var wire 32 C ram_array[31] [31:0] $end
     $var wire 32 ' ram_array[3] [31:0] $end
     $var wire 32 ( ram_array[4] [31:0] $end
     $var wire 32 ) ram_array[5] [31:0] $end
     $var wire 32 * ram_array[6] [31:0] $end
     $var wire 32 + ram_array[7] [31:0] $end
     $var wire 32 , ram_array[8] [31:0] $end
     $var wire 32 - ram_array[9] [31:0] $end
     $var wire  1 O wr_en $end
     $scope module unnamedblk1 $end
      $var wire 32 # i [31:0] $end
     $upscope $end
    $upscope $end
    $scope module se $end
     $var wire 32 g WIDTH [31:0] $end
     $var wire 32 U imm_op [31:0] $end
     $var wire  3 X imm_src [2:0] $end
     $var wire 32 F ins [31:0] $end
    $upscope $end
   $upscope $end
   $scope module u_execute $end
    $var wire 32 g D_WIDTH [31:0] $end
    $var wire  4 S alu_ctrl_e [3:0] $end
    $var wire 32 W alu_res [31:0] $end
    $var wire 32 W alu_result [31:0] $end
    $var wire  1 T alu_src_e $end
    $var wire  3 H funct3 [2:0] $end
    $var wire 32 U imm_ext_e [31:0] $end
    $var wire  1 V jalr $end
    $var wire  1 Q mem_write_e_i $end
    $var wire  1 Q mem_write_e_o $end
    $var wire 32 D pc_e [31:0] $end
    $var wire 32 e pc_imm [31:0] $end
    $var wire 32 E pc_plus_4e_i [31:0] $end
    $var wire 32 E pc_plus_4e_o [31:0] $end
    $var wire 32 b pc_target_e [31:0] $end
    $var wire 32 _ rd1_e [31:0] $end
    $var wire 32 ` rd2_e [31:0] $end
    $var wire  5 G rd_e_i [4:0] $end
    $var wire  5 G rd_e_o [4:0] $end
    $var wire  1 O reg_write_e_i $end
    $var wire  1 O reg_write_e_o $end
    $var wire  2 P result_src_e_i [1:0] $end
    $var wire  2 P result_src_e_o [1:0] $end
    $var wire 32 Z src_b_e [31:0] $end
    $var wire 32 ` write_data_e [31:0] $end
    $var wire  1 a zero_e $end
    $scope module ALU $end
     $var wire 32 g D_WIDTH [31:0] $end
     $var wire  4 S aluctrl [3:0] $end
     $var wire 32 _ aluop1 [31:0] $end
     $var wire 32 Z aluop2 [31:0] $end
     $var wire 32 W aluout [31:0] $end
     $var wire  1 a eq $end
     $var wire  3 H funct3 [2:0] $end
    $upscope $end
    $scope module imm_mux $end
     $var wire 32 g D_WIDTH [31:0] $end
     $var wire 32 ` in0 [31:0] $end
     $var wire 32 U in1 [31:0] $end
     $var wire 32 Z out [31:0] $end
     $var wire  1 T sel $end
    $upscope $end
    $scope module pc_mux $end
     $var wire 32 g D_WIDTH [31:0] $end
     $var wire 32 e in0 [31:0] $end
     $var wire 32 W in1 [31:0] $end
     $var wire 32 b out [31:0] $end
     $var wire  1 V sel $end
    $upscope $end
    $scope module u_branch $end
     $var wire 32 g WIDTH [31:0] $end
     $var wire 32 e branch_pc [31:0] $end
     $var wire 32 U imm [31:0] $end
     $var wire 32 D pc [31:0] $end
    $upscope $end
   $upscope $end
   $scope module u_fetch $end
    $var wire 32 g WIDTH [31:0] $end
    $var wire  1 \ clk $end
    $var wire 32 F ins [31:0] $end
    $var wire 32 f next_pc [31:0] $end
    $var wire 32 D pc_f [31:0] $end
    $var wire 32 E pc_plus_4 [31:0] $end
    $var wire 32 E pc_plus_4f [31:0] $end
    $var wire  1 R pc_src $end
    $var wire 32 b pc_target_ext [31:0] $end
    $var wire  1 ] rst $end
    $scope module u_instr_mem $end
     $var wire 32 g ADDRESS_WIDTH [31:0] $end
     $var wire 32 g DATA_WIDTH [31:0] $end
     $var wire 32 i SIZE [31:0] $end
     $var wire 32 D addr [31:0] $end
     $var wire 32 F dout [31:0] $end
    $upscope $end
    $scope module u_pc_inc $end
     $var wire 32 g WIDTH [31:0] $end
     $var wire 32 E inc_pc [31:0] $end
     $var wire 32 D pc [31:0] $end
    $upscope $end
    $scope module u_pc_mux $end
     $var wire 32 g D_WIDTH [31:0] $end
     $var wire 32 E in0 [31:0] $end
     $var wire 32 b in1 [31:0] $end
     $var wire 32 f out [31:0] $end
     $var wire  1 R sel $end
    $upscope $end
    $scope module u_pc_reg $end
     $var wire 32 g WIDTH [31:0] $end
     $var wire  1 \ clk $end
     $var wire 32 f pc_in [31:0] $end
     $var wire 32 D pc_out [31:0] $end
     $var wire  1 ] rst $end
    $upscope $end
   $upscope $end
   $scope module u_memory $end
    $var wire 32 g WIDTH [31:0] $end
    $var wire 32 W alu_result_m_i [31:0] $end
    $var wire 32 W alu_result_m_o [31:0] $end
    $var wire  1 \ clk $end
    $var wire  1 Q mem_write_m $end
    $var wire 32 E pc_plus_4_m_i [31:0] $end
    $var wire 32 E pc_plus_4_m_o [31:0] $end
    $var wire  5 G rd_m_i [4:0] $end
    $var wire  5 G rd_m_o [4:0] $end
    $var wire 32 c read_data [31:0] $end
    $var wire  1 O reg_write_m_i $end
    $var wire  1 O reg_write_m_o $end
    $var wire  2 P result_src_m_i [1:0] $end
    $var wire  2 P result_src_m_o [1:0] $end
    $var wire 32 ` write_data_m [31:0] $end
    $scope module data_mem $end
     $var wire 32 j DATA_WIDTH [31:0] $end
     $var wire 32 k SIZE [31:0] $end
     $var wire 32 g WIDTH [31:0] $end
     $var wire 32 W adr [31:0] $end
     $var wire  1 \ clk $end
     $var wire 17 [ index [16:0] $end
     $var wire 32 c read_data [31:0] $end
     $var wire 32 ` write_data [31:0] $end
     $var wire  1 Q write_enable $end
    $upscope $end
   $upscope $end
   $scope module u_writeback $end
    $var wire 32 g D_WIDTH [31:0] $end
    $var wire 32 W alu_result_w [31:0] $end
    $var wire 32 E pc_plus4 [31:0] $end
    $var wire  5 G rd_w_i [4:0] $end
    $var wire  5 G rd_w_o [4:0] $end
    $var wire 32 c read_data_w [31:0] $end
    $var wire  1 O reg_write_w_i $end
    $var wire  1 O reg_write_w_o $end
    $var wire  2 P result_src_w [1:0] $end
    $var wire 32 d result_w [31:0] $end
    $scope module writeback_mux $end
     $var wire 32 g D_WIDTH [31:0] $end
     $var wire 32 W in0 [31:0] $end
     $var wire 32 c in1 [31:0] $end
     $var wire 32 E in2 [31:0] $end
     $var wire 32 l in3 [31:0] $end
     $var wire 32 d out [31:0] $end
     $var wire  2 P sel [1:0] $end
    $upscope $end
   $upscope $end
  $upscope $end
 $upscope $end
$enddefinitions $end


#0
b00000000000000000000000000100000 #
b00000000000000000000000000000000 $
b00000000000000000000000000000000 %
b00000000000000000000000000000000 &
b00000000000000000000000000000000 '
b00000000000000000000000000000000 (
b00000000000000000000000000000000 )
b00000000000000000000000000000000 *
b00000000000000000000000000000000 +
b00000000000000000000000000000000 ,
b00000000000000000000000000000000 -
b00000000000000000000000000000000 .
b00000000000000000000000000000000 /
b00000000000000000000000000000000 0
b00000000000000000000000000000000 1
b00000000000000000000000000000000 2
b00000000000000000000000000000000 3
b00000000000000000000000000000000 4
b00000000000000000000000000000000 5
b00000000000000000000000000000000 6
b00000000000000000000000000000000 7
b00000000000000000000000000000000 8
b00000000000000000000000000000000 9
b00000000000000000000000000000000 :
b00000000000000000000000000000000 ;
b00000000000000000000000000000000 <
b00000000000000000000000000000000 =
b00000000000000000000000000000000 >
b00000000000000000000000000000000 ?
b00000000000000000000000000000000 @
b00000000000000000000000000000000 A
b00000000000000000000000000000000 B
b00000000000000000000000000000000 C
b00000000000000000000000000000000 D
b00000000000000000000000000000100 E
b00001111111100000000100100010011 F
b10010 G
b000 H
b0010011 I
b0000111 J
0K
0L
b00000 M
b11111 N
1O
b00 P
0Q
0R
b0000 S
1T
b00000000000000000000000011111111 U
0V
b00000000000000000000000011111111 W
b000 X
b010 Y
b00000000000000000000000011111111 Z
b00000000011111111 [
0\
1]
b00000000000000000000000000000000 ^
b00000000000000000000000000000000 _
b00000000000000000000000000000000 `
0a
b00000000000000000000000011111111 b
b00000000000000000000000000000000 c
b00000000000000000000000011111111 d
b00000000000000000000000011111111 e
b00000000000000000000000000000100 f
b00000000000000000000000000100000 g
b00000000000000000000000000000101 h
b00000000000000000000000000001100 i
b00000000000000000000000000001000 j
b00000000000000000000000000010001 k
b00000000000000000000000000000000 l
#1
1\
#2
b00000000000000000000000011111111 6
0\
#3
1\
#4
0\
#5
1\
#6
0\
#7
1\
#8
0\
#9
1\
#10
b00000000000000000000000000000001 0
b00000000000000000000000000000001 1
b00000000000000000000000000000011 7
b00000000000000000000000000010100 D
b00000000000000000000000000011000 E
b00000000000000000000010100010011 F
b01010 G
b0000000 J
b00000 N
b00000000000000000000000000000000 U
b00000000000000000000000000000000 W
b00000000000000000000000000000000 Z
b00000000000000000 [
0\
0]
1a
b00000000000000000000000000010100 b
b00000000000000000000000000000000 d
b00000000000000000000000000010100 e
b00000000000000000000000000011000 f
#11
b00000000000000000000000000011000 D
b00000000000000000000000000011100 E
b00000000000000000000011100010011 F
b01110 G
1\
b00000000000000000000000000011000 b
b00000000000000000000000000011000 e
b00000000000000000000000000011100 f
#12
0\
#13
b00000000000000000000000000011100 D
b00000000000000000000000000100000 E
b00000000010000000000000001101111 F
b00000 G
b1101111 I
1K
b00100 N
b10 P
1R
b00000000000000000000000000000100 U
b00000000000000000000000000000100 W
b011 X
b000 Y
b00000000000000000000000000000100 Z
b00000000000000100 [
1\
0a
b00000000000000000000000000100000 b
b00000000000000000000000000100000 d
b00000000000000000000000000100000 e
b00000000000000000000000000100000 f
#14
0\
#15
b00000000000000000000000000100000 D
b00000000000000000000000000100100 E
b00000100110000000000000011101111 F
b00001 G
b0000010 J
b01100 N
b00000000000000000000000001001100 U
b00000000000000000000000001001100 W
b00000000000000000000000001001100 Z
b00000000001001100 [
1\
b00000000000000000000000000000001 `
b00000000000000000000000001101100 b
b00000000000000000000000000100100 d
b00000000000000000000000001101100 e
b00000000000000000000000001101100 f
#16
b00000000000000000000000000100100 %
0\
#17
b00000000000000000000000001101100 D
b00000000000000000000000001110000 E
b00000000000101011000010110010011 F
b01011 G
b0010011 I
b0000000 J
0K
b01011 M
b00001 N
b00 P
0R
b00000000000000000000000000000001 U
b00000000000000000000000000000001 W
b000 X
b010 Y
b00000000000000000000000000000001 Z
b00000000000000001 [
1\
b00000000000000000000000000100100 `
b00000000000000000000000001101101 b
b00000000000000000000000000000001 d
b00000000000000000000000001101101 e
b00000000000000000000000001110000 f
#18
b00000000000000000000000000000001 /
b00000000000000000000000000000010 W
b00000000000000010 [
0\
b00000000000000000000000000000001 _
1a
b00000000000000000000000000000010 d
#19
b00000000000000000000000001110000 D
b00000000000000000000000001110100 E
b11111111001101011001111011100011 F
b11101 G
b001 H
b1100011 I
b1111111 J
1K
1L
b10011 N
0O
1R
b0001 S
0T
b11111111111111111111111111111100 U
b11111111111111111111111111111110 W
b010 X
b001 Y
b00000000000000000000000000000011 Z
b11111111111111110 [
1\
b00000000000000000000000000000011 `
b00000000000000000000000001101100 b
b11111111111111111111111111111110 d
b00000000000000000000000001101100 e
b00000000000000000000000001101100 f
#20
0\
#21
b00000000000000000000000001101100 D
b00000000000000000000000001110000 E
b00000000000101011000010110010011 F
b01011 G
b000 H
b0010011 I
b0000000 J
0K
0L
b00001 N
1O
0R
b0000 S
1T
b00000000000000000000000000000001 U
b00000000000000000000000000000010 W
b000 X
b010 Y
b00000000000000000000000000000001 Z
b00000000000000010 [
1\
b00000000000000000000000000100100 `
b00000000000000000000000001101101 b
b00000000000000000000000000000010 d
b00000000000000000000000001101101 e
b00000000000000000000000001110000 f
#22
b00000000000000000000000000000010 /
b00000000000000000000000000000011 W
b00000000000000011 [
0\
b00000000000000000000000000000010 _
0a
b00000000000000000000000000000011 d
#23
b00000000000000000000000001110000 D
b00000000000000000000000001110100 E
b11111111001101011001111011100011 F
b11101 G
b001 H
b1100011 I
b1111111 J
1K
1L
b10011 N
0O
1R
b0001 S
0T
b11111111111111111111111111111100 U
b11111111111111111111111111111111 W
b010 X
b001 Y
b00000000000000000000000000000011 Z
b11111111111111111 [
1\
b00000000000000000000000000000011 `
1a
b00000000000000000000000001101100 b
b11111111111111111111111111111111 d
b00000000000000000000000001101100 e
b00000000000000000000000001101100 f
#24
0\
#25
b00000000000000000000000001101100 D
b00000000000000000000000001110000 E
b00000000000101011000010110010011 F
b01011 G
b000 H
b0010011 I
b0000000 J
0K
0L
b00001 N
1O
0R
b0000 S
1T
b00000000000000000000000000000001 U
b00000000000000000000000000000011 W
b000 X
b010 Y
b00000000000000000000000000000001 Z
b00000000000000011 [
1\
b00000000000000000000000000100100 `
0a
b00000000000000000000000001101101 b
b00000000000000000000000000000011 d
b00000000000000000000000001101101 e
b00000000000000000000000001110000 f
#26
b00000000000000000000000000000011 /
b00000000000000000000000000000100 W
b00000000000000100 [
0\
b00000000000000000000000000000011 _
b00000000000000000000000000000100 d
#27
b00000000000000000000000001110000 D
b00000000000000000000000001110100 E
b11111111001101011001111011100011 F
b11101 G
b001 H
b1100011 I
b1111111 J
1K
1L
b10011 N
0O
b0001 S
0T
b11111111111111111111111111111100 U
b00000000000000000000000000000000 W
b010 X
b001 Y
b00000000000000000000000000000011 Z
b00000000000000000 [
1\
b00000000000000000000000000000011 `
b00000000000000000000000001101100 b
b00000000000000000000000000000000 d
b00000000000000000000000001101100 e
b00000000000000000000000001110100 f
#28
0\
#29
b00000000000000000000000001110100 D
b00000000000000000000000001111000 E
b00000000000000000000010110010011 F
b01011 G
b000 H
b0010011 I
b0000000 J
0K
0L
b00000 M
b00000 N
1O
b0000 S
1T
b00000000000000000000000000000000 U
b000 X
b010 Y
b00000000000000000000000000000000 Z
1\
b00000000000000000000000000000000 _
b00000000000000000000000000000000 `
1a
b00000000000000000000000001110100 b
b00000000000000000000000001110100 e
b00000000000000000000000001111000 f
#30
b00000000000000000000000000000000 /
0\
#31
b00000000000000000000000001111000 D
b00000000000000000000000001111100 E
b00000000000000001000000001100111 F
b00000 G
b1100111 I
1K
b00001 M
1R
1V
b00000000000000000000000000100100 W
b000 Y
b00000000000100100 [
1\
b00000000000000000000000000100100 _
0a
b00000000000000000000000000100100 b
b00000000000000000000000000100100 d
b00000000000000000000000001111000 e
b00000000000000000000000000100100 f
#32
0\
#33
b00000000000000000000000000100100 D
b00000000000000000000000000101000 E
b00000000000101010001010100010011 F
b01010 G
b001 H
b0010011 I
0K
b01010 M
b00001 N
0R
b0111 S
b00000000000000000000000000000001 U
0V
b00000000000000000000000000000000 W
b010 Y
b00000000000000000000000000000001 Z
b00000000000000000 [
1\
b00000000000000000000000000000000 _
b00000000000000000000000000100100 `
1a
b00000000000000000000000000100101 b
b00000000000000000000000000000000 d
b00000000000000000000000000100101 e
b00000000000000000000000000101000 f
#34
0\
#35
b00000000000000000000000000101000 D
b00000000000000000000000000101100 E
b00000000000101010000010100010011 F
b000 H
b0000 S
b00000000000000000000000000000001 W
b00000000000000001 [
1\
0a
b00000000000000000000000000101001 b
b00000000000000000000000000000001 d
b00000000000000000000000000101001 e
b00000000000000000000000000101100 f
#36
b00000000000000000000000000000001 .
b00000000000000000000000000000010 W
b00000000000000010 [
0\
b00000000000000000000000000000001 ^
b00000000000000000000000000000001 _
1a
b00000000000000000000000000000010 d
#37
b00000000000000000000000000101100 D
b00000000000000000000000000110000 E
b11111111001001010001101011100011 F
b10101 G
b001 H
b1100011 I
b1111111 J
1K
1L
b10010 N
0O
1R
b0001 S
0T
b11111111111111111111111111110100 U
b11111111111111111111111100000010 W
b010 X
b001 Y
b00000000000000000000000011111111 Z
b11111111100000010 [
1\
b00000000000000000000000011111111 `
b00000000000000000000000000100000 b
b11111111111111111111111100000010 d
b00000000000000000000000000100000 e
b00000000000000000000000000100000 f
#38
0\
#39
b00000000000000000000000000100000 D
b00000000000000000000000000100100 E
b00000100110000000000000011101111 F
b00001 G
b000 H
b1101111 I
b0000010 J
0L
b00000 M
b01100 N
1O
b10 P
b0000 S
1T
b00000000000000000000000001001100 U
b00000000000000000000000001001100 W
b011 X
b000 Y
b00000000000000000000000001001100 Z
b00000000001001100 [
1\
b00000000000000000000000000000000 _
b00000000000000000000000000000001 `
0a
b00000000000000000000000001101100 b
b00000000000000000000000000100100 d
b00000000000000000000000001101100 e
b00000000000000000000000001101100 f
#40
0\
#41
b00000000000000000000000001101100 D
b00000000000000000000000001110000 E
b00000000000101011000010110010011 F
b01011 G
b0010011 I
b0000000 J
0K
b01011 M
b00001 N
b00 P
0R
b00000000000000000000000000000001 U
b00000000000000000000000000000001 W
b000 X
b010 Y
b00000000000000000000000000000001 Z
b00000000000000001 [
1\
b00000000000000000000000000100100 `
b00000000000000000000000001101101 b
b00000000000000000000000000000001 d
b00000000000000000000000001101101 e
b00000000000000000000000001110000 f
#42
b00000000000000000000000000000001 /
b00000000000000000000000000000010 W
b00000000000000010 [
0\
b00000000000000000000000000000001 _
1a
b00000000000000000000000000000010 d
#43
b00000000000000000000000001110000 D
b00000000000000000000000001110100 E
b11111111001101011001111011100011 F
b11101 G
b001 H
b1100011 I
b1111111 J
1K
1L
b10011 N
0O
1R
b0001 S
0T
b11111111111111111111111111111100 U
b11111111111111111111111111111110 W
b010 X
b001 Y
b00000000000000000000000000000011 Z
b11111111111111110 [
1\
b00000000000000000000000000000011 `
b00000000000000000000000001101100 b
b11111111111111111111111111111110 d
b00000000000000000000000001101100 e
b00000000000000000000000001101100 f
#44
0\
#45
b00000000000000000000000001101100 D
b00000000000000000000000001110000 E
b00000000000101011000010110010011 F
b01011 G
b000 H
b0010011 I
b0000000 J
0K
0L
b00001 N
1O
0R
b0000 S
1T
b00000000000000000000000000000001 U
b00000000000000000000000000000010 W
b000 X
b010 Y
b00000000000000000000000000000001 Z
b00000000000000010 [
1\
b00000000000000000000000000100100 `
b00000000000000000000000001101101 b
b00000000000000000000000000000010 d
b00000000000000000000000001101101 e
b00000000000000000000000001110000 f
#46
b00000000000000000000000000000010 /
b00000000000000000000000000000011 W
b00000000000000011 [
0\
b00000000000000000000000000000010 _
0a
b00000000000000000000000000000011 d
#47
b00000000000000000000000001110000 D
b00000000000000000000000001110100 E
b11111111001101011001111011100011 F
b11101 G
b001 H
b1100011 I
b1111111 J
1K
1L
b10011 N
0O
1R
b0001 S
0T
b11111111111111111111111111111100 U
b11111111111111111111111111111111 W
b010 X
b001 Y
b00000000000000000000000000000011 Z
b11111111111111111 [
1\
b00000000000000000000000000000011 `
1a
b00000000000000000000000001101100 b
b11111111111111111111111111111111 d
b00000000000000000000000001101100 e
b00000000000000000000000001101100 f
#48
0\
#49
b00000000000000000000000001101100 D
b00000000000000000000000001110000 E
b00000000000101011000010110010011 F
b01011 G
b000 H
b0010011 I
b0000000 J
0K
0L
b00001 N
1O
0R
b0000 S
1T
b00000000000000000000000000000001 U
b00000000000000000000000000000011 W
b000 X
b010 Y
b00000000000000000000000000000001 Z
b00000000000000011 [
1\
b00000000000000000000000000100100 `
0a
b00000000000000000000000001101101 b
b00000000000000000000000000000011 d
b00000000000000000000000001101101 e
b00000000000000000000000001110000 f
#50
b00000000000000000000000000000011 /
b00000000000000000000000000000100 W
b00000000000000100 [
0\
b00000000000000000000000000000011 _
b00000000000000000000000000000100 d
#51
b00000000000000000000000001110000 D
b00000000000000000000000001110100 E
b11111111001101011001111011100011 F
b11101 G
b001 H
b1100011 I
b1111111 J
1K
1L
b10011 N
0O
b0001 S
0T
b11111111111111111111111111111100 U
b00000000000000000000000000000000 W
b010 X
b001 Y
b00000000000000000000000000000011 Z
b00000000000000000 [
1\
b00000000000000000000000000000011 `
b00000000000000000000000001101100 b
b00000000000000000000000000000000 d
b00000000000000000000000001101100 e
b00000000000000000000000001110100 f
#52
0\
#53
b00000000000000000000000001110100 D
b00000000000000000000000001111000 E
b00000000000000000000010110010011 F
b01011 G
b000 H
b0010011 I
b0000000 J
0K
0L
b00000 M
b00000 N
1O
b0000 S
1T
b00000000000000000000000000000000 U
b000 X
b010 Y
b00000000000000000000000000000000 Z
1\
b00000000000000000000000000000000 _
b00000000000000000000000000000000 `
1a
b00000000000000000000000001110100 b
b00000000000000000000000001110100 e
b00000000000000000000000001111000 f
#54
b00000000000000000000000000000000 /
0\
#55
b00000000000000000000000001111000 D
b00000000000000000000000001111100 E
b00000000000000001000000001100111 F
b00000 G
b1100111 I
1K
b00001 M
1R
1V
b00000000000000000000000000100100 W
b000 Y
b00000000000100100 [
1\
b00000000000000000000000000100100 _
0a
b00000000000000000000000000100100 b
b00000000000000000000000000100100 d
b00000000000000000000000001111000 e
b00000000000000000000000000100100 f
#56
0\
#57
b00000000000000000000000000100100 D
b00000000000000000000000000101000 E
b00000000000101010001010100010011 F
b01010 G
b001 H
b0010011 I
0K
b01010 M
b00001 N
0R
b0111 S
b00000000000000000000000000000001 U
0V
b00000000000000000000000000000010 W
b010 Y
b00000000000000000000000000000001 Z
b00000000000000010 [
1\
b00000000000000000000000000000001 _
b00000000000000000000000000100100 `
b00000000000000000000000000100101 b
b00000000000000000000000000000010 d
b00000000000000000000000000100101 e
b00000000000000000000000000101000 f
#58
b00000000000000000000000000000010 .
b00000000000000000000000000000100 W
b00000000000000100 [
0\
b00000000000000000000000000000010 ^
b00000000000000000000000000000010 _
1a
b00000000000000000000000000000100 d
#59
b00000000000000000000000000101000 D
b00000000000000000000000000101100 E
b00000000000101010000010100010011 F
b000 H
b0000 S
b00000000000000000000000000000011 W
b00000000000000011 [
1\
0a
b00000000000000000000000000101001 b
b00000000000000000000000000000011 d
b00000000000000000000000000101001 e
b00000000000000000000000000101100 f
#60
b00000000000000000000000000000011 .
b00000000000000000000000000000100 W
b00000000000000100 [
0\
b00000000000000000000000000000011 ^
b00000000000000000000000000000011 _
b00000000000000000000000000000100 d
#61
b00000000000000000000000000101100 D
b00000000000000000000000000110000 E
b11111111001001010001101011100011 F
b10101 G
b001 H
b1100011 I
b1111111 J
1K
1L
b10010 N
0O
1R
b0001 S
0T
b11111111111111111111111111110100 U
b11111111111111111111111100000100 W
b010 X
b001 Y
b00000000000000000000000011111111 Z
b11111111100000100 [
1\
b00000000000000000000000011111111 `
1a
b00000000000000000000000000100000 b
b11111111111111111111111100000100 d
b00000000000000000000000000100000 e
b00000000000000000000000000100000 f
#62
0\
#63
b00000000000000000000000000100000 D
b00000000000000000000000000100100 E
b00000100110000000000000011101111 F
b00001 G
b000 H
b1101111 I
b0000010 J
0L
b00000 M
b01100 N
1O
b10 P
b0000 S
1T
b00000000000000000000000001001100 U
b00000000000000000000000001001100 W
b011 X
b000 Y
b00000000000000000000000001001100 Z
b00000000001001100 [
1\
b00000000000000000000000000000000 _
b00000000000000000000000000000001 `
0a
b00000000000000000000000001101100 b
b00000000000000000000000000100100 d
b00000000000000000000000001101100 e
b00000000000000000000000001101100 f
#64
0\
#65
b00000000000000000000000001101100 D
b00000000000000000000000001110000 E
b00000000000101011000010110010011 F
b01011 G
b0010011 I
b0000000 J
0K
b01011 M
b00001 N
b00 P
0R
b00000000000000000000000000000001 U
b00000000000000000000000000000001 W
b000 X
b010 Y
b00000000000000000000000000000001 Z
b00000000000000001 [
1\
b00000000000000000000000000100100 `
b00000000000000000000000001101101 b
b00000000000000000000000000000001 d
b00000000000000000000000001101101 e
b00000000000000000000000001110000 f
#66
b00000000000000000000000000000001 /
b00000000000000000000000000000010 W
b00000000000000010 [
0\
b00000000000000000000000000000001 _
1a
b00000000000000000000000000000010 d
#67
b00000000000000000000000001110000 D
b00000000000000000000000001110100 E
b11111111001101011001111011100011 F
b11101 G
b001 H
b1100011 I
b1111111 J
1K
1L
b10011 N
0O
1R
b0001 S
0T
b11111111111111111111111111111100 U
b11111111111111111111111111111110 W
b010 X
b001 Y
b00000000000000000000000000000011 Z
b11111111111111110 [
1\
b00000000000000000000000000000011 `
b00000000000000000000000001101100 b
b11111111111111111111111111111110 d
b00000000000000000000000001101100 e
b00000000000000000000000001101100 f
#68
0\
