tb/tests/cpu.vcd
$version Generated by VerilatedVcd $end
$date Tue Dec  2 15:51:51 2025 $end
$timescale 1ps $end

 $scope module TOP $end
  $var wire 32 _ a0 [31:0] $end
  $var wire  1 ] clk $end
  $var wire  1 ^ rst $end
  $scope module cpu $end
   $var wire 32 h WIDTH [31:0] $end
   $var wire 32 _ a0 [31:0] $end
   $var wire  4 T alu_control_d [3:0] $end
   $var wire 32 X alu_result_e [31:0] $end
   $var wire 32 X alu_result_m_o [31:0] $end
   $var wire  1 U alu_src_d $end
   $var wire  1 ] clk $end
   $var wire  3 H funct3_int [2:0] $end
   $var wire 32 V imm_ext_d [31:0] $end
   $var wire 32 F ins [31:0] $end
   $var wire  1 W jalr $end
   $var wire  1 R mem_write_d $end
   $var wire  1 R mem_write_e_o $end
   $var wire 32 D pc_d_o [31:0] $end
   $var wire 32 D pc_f [31:0] $end
   $var wire 32 E pc_plus_4_m_o [31:0] $end
   $var wire 32 E pc_plus_4d_o [31:0] $end
   $var wire 32 E pc_plus_4e_o [31:0] $end
   $var wire 32 E pc_plus_4f [31:0] $end
   $var wire  1 S pc_src $end
   $var wire 32 c pc_target_e [31:0] $end
   $var wire 32 ` rd_1 [31:0] $end
   $var wire 32 a rd_2 [31:0] $end
   $var wire  5 G rd_d [4:0] $end
   $var wire  5 G rd_e_o [4:0] $end
   $var wire  5 G rd_m_o [4:0] $end
   $var wire  5 G rd_w_o [4:0] $end
   $var wire 32 d read_data_m [31:0] $end
   $var wire  1 P reg_write_d $end
   $var wire  1 P reg_write_e_o $end
   $var wire  1 P reg_write_m_o $end
   $var wire  1 P reg_write_w_o $end
   $var wire  2 Q result_src_d [1:0] $end
   $var wire  2 Q result_src_e_o [1:0] $end
   $var wire  2 Q result_src_m_o [1:0] $end
   $var wire 32 e result_w [31:0] $end
   $var wire  1 ^ rst $end
   $var wire 32 a write_data_e [31:0] $end
   $var wire  1 b zero_e $end
   $scope module u_decode $end
    $var wire 32 h DATA_WIDTH [31:0] $end
    $var wire 32 _ a0 [31:0] $end
    $var wire  4 T alu_control_d [3:0] $end
    $var wire  1 U alu_src_d $end
    $var wire  1 ] clk $end
    $var wire  3 H funct3 [2:0] $end
    $var wire 32 V imm_ext_d [31:0] $end
    $var wire  3 Y imm_src_d [2:0] $end
    $var wire 32 F ins [31:0] $end
    $var wire  1 W jalr $end
    $var wire  1 R mem_write_d $end
    $var wire 32 D pc_d_i [31:0] $end
    $var wire 32 D pc_d_o [31:0] $end
    $var wire 32 E pc_plus_4d_i [31:0] $end
    $var wire 32 E pc_plus_4d_o [31:0] $end
    $var wire  1 S pc_src $end
    $var wire 32 ` rd_1 [31:0] $end
    $var wire 32 a rd_2 [31:0] $end
    $var wire  5 G rd_d [4:0] $end
    $var wire  5 G rd_w [4:0] $end
    $var wire  1 P reg_write_d $end
    $var wire  1 P reg_write_w $end
    $var wire  2 Q result_src_d [1:0] $end
    $var wire 32 e result_w [31:0] $end
    $var wire  1 b zero_e $end
    $scope module cu $end
     $var wire 32 h WIDTH [31:0] $end
     $var wire  4 T alu_ctrl [3:0] $end
     $var wire  3 Z alu_logic [2:0] $end
     $var wire  1 U alu_src $end
     $var wire  1 b eq $end
     $var wire  3 H funct3 [2:0] $end
     $var wire  7 J funct7 [6:0] $end
     $var wire  3 Y imm_src [2:0] $end
     $var wire 32 F ins [31:0] $end
     $var wire  1 W jalr $end
     $var wire  1 R mem_write $end
     $var wire  7 I opcode [6:0] $end
     $var wire  1 S pc_src $end
     $var wire  1 P reg_write $end
     $var wire  2 Q result_src [1:0] $end
     $scope module decoder_1 $end
      $var wire  3 Z alu_op [2:0] $end
      $var wire  1 U alu_src $end
      $var wire  1 b eq $end
      $var wire  3 Y imm_src [2:0] $end
      $var wire  1 W jalr $end
      $var wire  1 R mem_write $end
      $var wire  7 I opcode [6:0] $end
      $var wire  1 S pc_src $end
      $var wire  1 P reg_write $end
      $var wire  2 Q result_src [1:0] $end
     $upscope $end
     $scope module decoder_2 $end
      $var wire  4 T alu_ctrl [3:0] $end
      $var wire  3 Z alu_op [2:0] $end
      $var wire  3 H funct3 [2:0] $end
      $var wire  1 L funct7_5 $end
      $var wire  1 K opcode_5 $end
     $upscope $end
    $upscope $end
    $scope module rf $end
     $var wire 32 i ADDRESS_WIDTH [31:0] $end
     $var wire 32 h D_WIDTH [31:0] $end
     $var wire 32 _ a0 [31:0] $end
     $var wire  5 M a1 [4:0] $end
     $var wire  5 N a2 [4:0] $end
     $var wire  5 G a3 [4:0] $end
     $var wire  1 ] clk $end
     $var wire 32 e din [31:0] $end
     $var wire 32 ` dout1 [31:0] $end
     $var wire 32 a dout2 [31:0] $end
     $var wire 32 $ ram_array[0] [31:0] $end
     $var wire 32 . ram_array[10] [31:0] $end
     $var wire 32 / ram_array[11] [31:0] $end
     $var wire 32 0 ram_array[12] [31:0] $end
     $var wire 32 1 ram_array[13] [31:0] $end
     $var wire 32 2 ram_array[14] [31:0] $end
     $var wire 32 3 ram_array[15] [31:0] $end
     $var wire 32 4 ram_array[16] [31:0] $end
     $var wire 32 5 ram_array[17] [31:0] $end
     $var wire 32 6 ram_array[18] [31:0] $end
     $var wire 32 7 ram_array[19] [31:0] $end
     $var wire 32 % ram_array[1] [31:0] $end
     $var wire 32 8 ram_array[20] [31:0] $end
     $var wire 32 9 ram_array[21] [31:0] $end
     $var wire 32 : ram_array[22] [31:0] $end
     $var wire 32 ; ram_array[23] [31:0] $end
     $var wire 32 < ram_array[24] [31:0] $end
     $var wire 32 = ram_array[25] [31:0] $end
     $var wire 32 > ram_array[26] [31:0] $end
     $var wire 32 ? ram_array[27] [31:0] $end
     $var wire 32 @ ram_array[28] [31:0] $end
     $var wire 32 A ram_array[29] [31:0] $end
     $var wire 32 & ram_array[2] [31:0] $end
     $var wire 32 B ram_array[30] [31:0] $end
     $var wire 32 C ram_array[31] [31:0] $end
     $var wire 32 ' ram_array[3] [31:0] $end
     $var wire 32 ( ram_array[4] [31:0] $end
     $var wire 32 ) ram_array[5] [31:0] $end
     $var wire 32 * ram_array[6] [31:0] $end
     $var wire 32 + ram_array[7] [31:0] $end
     $var wire 32 , ram_array[8] [31:0] $end
     $var wire 32 - ram_array[9] [31:0] $end
     $var wire  1 P wr_en $end
     $scope module unnamedblk1 $end
      $var wire 32 # i [31:0] $end
     $upscope $end
    $upscope $end
    $scope module se $end
     $var wire 32 h WIDTH [31:0] $end
     $var wire 32 V imm_op [31:0] $end
     $var wire  3 Y imm_src [2:0] $end
     $var wire 32 F ins [31:0] $end
    $upscope $end
   $upscope $end
   $scope module u_execute $end
    $var wire 32 h D_WIDTH [31:0] $end
    $var wire  4 T alu_ctrl_e [3:0] $end
    $var wire 32 X alu_res [31:0] $end
    $var wire 32 X alu_result [31:0] $end
    $var wire  1 U alu_src_e $end
    $var wire  3 H funct3 [2:0] $end
    $var wire 32 V imm_ext_e [31:0] $end
    $var wire  1 W jalr $end
    $var wire  1 R mem_write_e_i $end
    $var wire  1 R mem_write_e_o $end
    $var wire 32 D pc_e [31:0] $end
    $var wire 32 f pc_imm [31:0] $end
    $var wire 32 E pc_plus_4e_i [31:0] $end
    $var wire 32 E pc_plus_4e_o [31:0] $end
    $var wire 32 c pc_target_e [31:0] $end
    $var wire 32 ` rd1_e [31:0] $end
    $var wire 32 a rd2_e [31:0] $end
    $var wire  5 G rd_e_i [4:0] $end
    $var wire  5 G rd_e_o [4:0] $end
    $var wire  1 P reg_write_e_i $end
    $var wire  1 P reg_write_e_o $end
    $var wire  2 Q result_src_e_i [1:0] $end
    $var wire  2 Q result_src_e_o [1:0] $end
    $var wire 32 [ src_b_e [31:0] $end
    $var wire 32 a write_data_e [31:0] $end
    $var wire  1 b zero_e $end
    $scope module ALU $end
     $var wire 32 h D_WIDTH [31:0] $end
     $var wire  4 T aluctrl [3:0] $end
     $var wire 32 ` aluop1 [31:0] $end
     $var wire 32 [ aluop2 [31:0] $end
     $var wire 32 X aluout [31:0] $end
     $var wire  1 b eq $end
     $var wire  3 H funct3 [2:0] $end
    $upscope $end
    $scope module imm_mux $end
     $var wire 32 h D_WIDTH [31:0] $end
     $var wire 32 a in0 [31:0] $end
     $var wire 32 V in1 [31:0] $end
     $var wire 32 [ out [31:0] $end
     $var wire  1 U sel $end
    $upscope $end
    $scope module pc_mux $end
     $var wire 32 h D_WIDTH [31:0] $end
     $var wire 32 f in0 [31:0] $end
     $var wire 32 X in1 [31:0] $end
     $var wire 32 c out [31:0] $end
     $var wire  1 W sel $end
    $upscope $end
    $scope module u_branch $end
     $var wire 32 h WIDTH [31:0] $end
     $var wire 32 f branch_pc [31:0] $end
     $var wire 32 V imm [31:0] $end
     $var wire 32 D pc [31:0] $end
    $upscope $end
   $upscope $end
   $scope module u_fetch $end
    $var wire 32 h WIDTH [31:0] $end
    $var wire  1 ] clk $end
    $var wire 32 F ins [31:0] $end
    $var wire 32 g next_pc [31:0] $end
    $var wire 32 D pc_f [31:0] $end
    $var wire 32 E pc_plus_4 [31:0] $end
    $var wire 32 E pc_plus_4f [31:0] $end
    $var wire  1 S pc_src $end
    $var wire 32 c pc_target_ext [31:0] $end
    $var wire  1 ^ rst $end
    $scope module u_instr_mem $end
     $var wire 32 h ADDRESS_WIDTH [31:0] $end
     $var wire 32 h DATA_WIDTH [31:0] $end
     $var wire 32 j SIZE [31:0] $end
     $var wire 32 D addr [31:0] $end
     $var wire 14 O byte_addr [13:0] $end
     $var wire 32 F dout [31:0] $end
    $upscope $end
    $scope module u_pc_inc $end
     $var wire 32 h WIDTH [31:0] $end
     $var wire 32 E inc_pc [31:0] $end
     $var wire 32 D pc [31:0] $end
    $upscope $end
    $scope module u_pc_mux $end
     $var wire 32 h D_WIDTH [31:0] $end
     $var wire 32 E in0 [31:0] $end
     $var wire 32 c in1 [31:0] $end
     $var wire 32 g out [31:0] $end
     $var wire  1 S sel $end
    $upscope $end
    $scope module u_pc_reg $end
     $var wire 32 h WIDTH [31:0] $end
     $var wire  1 ] clk $end
     $var wire 32 g pc_in [31:0] $end
     $var wire 32 D pc_out [31:0] $end
     $var wire  1 ^ rst $end
    $upscope $end
   $upscope $end
   $scope module u_memory $end
    $var wire 32 h WIDTH [31:0] $end
    $var wire 32 X alu_result_m_i [31:0] $end
    $var wire 32 X alu_result_m_o [31:0] $end
    $var wire  1 ] clk $end
    $var wire  1 R mem_write_m $end
    $var wire 32 E pc_plus_4_m_i [31:0] $end
    $var wire 32 E pc_plus_4_m_o [31:0] $end
    $var wire  5 G rd_m_i [4:0] $end
    $var wire  5 G rd_m_o [4:0] $end
    $var wire 32 d read_data [31:0] $end
    $var wire  1 P reg_write_m_i $end
    $var wire  1 P reg_write_m_o $end
    $var wire  2 Q result_src_m_i [1:0] $end
    $var wire  2 Q result_src_m_o [1:0] $end
    $var wire 32 a write_data_m [31:0] $end
    $scope module data_mem $end
     $var wire 32 k DATA_WIDTH [31:0] $end
     $var wire 32 l SIZE [31:0] $end
     $var wire 32 h WIDTH [31:0] $end
     $var wire 32 X adr [31:0] $end
     $var wire  1 ] clk $end
     $var wire 17 \ index [16:0] $end
     $var wire 32 d read_data [31:0] $end
     $var wire 32 a write_data [31:0] $end
     $var wire  1 R write_enable $end
    $upscope $end
   $upscope $end
   $scope module u_writeback $end
    $var wire 32 h D_WIDTH [31:0] $end
    $var wire 32 X alu_result_w [31:0] $end
    $var wire 32 E pc_plus4 [31:0] $end
    $var wire  5 G rd_w_i [4:0] $end
    $var wire  5 G rd_w_o [4:0] $end
    $var wire 32 d read_data_w [31:0] $end
    $var wire  1 P reg_write_w_i $end
    $var wire  1 P reg_write_w_o $end
    $var wire  2 Q result_src_w [1:0] $end
    $var wire 32 e result_w [31:0] $end
    $scope module writeback_mux $end
     $var wire 32 h D_WIDTH [31:0] $end
     $var wire 32 X in0 [31:0] $end
     $var wire 32 d in1 [31:0] $end
     $var wire 32 E in2 [31:0] $end
     $var wire 32 m in3 [31:0] $end
     $var wire 32 e out [31:0] $end
     $var wire  2 Q sel [1:0] $end
    $upscope $end
   $upscope $end
  $upscope $end
 $upscope $end
$enddefinitions $end


#0
b00000000000000000000000000100000 #
b00000000000000000000000000000000 $
b00000000000000000000000000000000 %
b00000000000000000000000000000000 &
b00000000000000000000000000000000 '
b00000000000000000000000000000000 (
b00000000000000000000000000000000 )
b00000000000000000000000000000000 *
b00000000000000000000000000000000 +
b00000000000000000000000000000000 ,
b00000000000000000000000000000000 -
b00000000000000000000000000000000 .
b00000000000000000000000000000000 /
b00000000000000000000000000000000 0
b00000000000000000000000000000000 1
b00000000000000000000000000000000 2
b00000000000000000000000000000000 3
b00000000000000000000000000000000 4
b00000000000000000000000000000000 5
b00000000000000000000000000000000 6
b00000000000000000000000000000000 7
b00000000000000000000000000000000 8
b00000000000000000000000000000000 9
b00000000000000000000000000000000 :
b00000000000000000000000000000000 ;
b00000000000000000000000000000000 <
b00000000000000000000000000000000 =
b00000000000000000000000000000000 >
b00000000000000000000000000000000 ?
b00000000000000000000000000000000 @
b00000000000000000000000000000000 A
b00000000000000000000000000000000 B
b00000000000000000000000000000000 C
b00000000000000000000000000000000 D
b00000000000000000000000000000100 E
b00001111111100000000100100010011 F
b10010 G
b000 H
b0010011 I
b0000111 J
0K
0L
b00000 M
b11111 N
b00000000000000 O
1P
b00 Q
0R
0S
b0000 T
1U
b00000000000000000000000011111111 V
0W
b00000000000000000000000011111111 X
b000 Y
b010 Z
b00000000000000000000000011111111 [
b00000000011111111 \
0]
1^
b00000000000000000000000000000000 _
b00000000000000000000000000000000 `
b00000000000000000000000000000000 a
0b
b00000000000000000000000011111111 c
b00000000000000000000000000000000 d
b00000000000000000000000011111111 e
b00000000000000000000000011111111 f
b00000000000000000000000000000100 g
b00000000000000000000000000100000 h
b00000000000000000000000000000101 i
b00000000000000000000000000001110 j
b00000000000000000000000000001000 k
b00000000000000000000000000010001 l
b00000000000000000000000000000000 m
#1
1]
#2
b00000000000000000000000011111111 6
0]
#3
1]
#4
0]
#5
1]
#6
0]
#7
1]
#8
0]
#9
1]
#10
b00000000000000000000000000000001 0
b00000000000000000000000000000001 1
b00000000000000000000000000000011 7
b00000000000000000000000000010100 D
b00000000000000000000000000011000 E
b00000000000000000000010100010011 F
b01010 G
b0000000 J
b00000 N
b00000000010100 O
b00000000000000000000000000000000 V
b00000000000000000000000000000000 X
b00000000000000000000000000000000 [
b00000000000000000 \
0]
0^
1b
b00000000000000000000000000010100 c
b00000000000000000000000000000000 e
b00000000000000000000000000010100 f
b00000000000000000000000000011000 g
#11
b00000000000000000000000000011000 D
b00000000000000000000000000011100 E
b00000000000000000000011100010011 F
b01110 G
b00000000011000 O
1]
b00000000000000000000000000011000 c
b00000000000000000000000000011000 f
b00000000000000000000000000011100 g
#12
0]
#13
b00000000000000000000000000011100 D
b00000000000000000000000000100000 E
b00000000010000000000000001101111 F
b00000 G
b1101111 I
1K
b00100 N
b00000000011100 O
b10 Q
1S
b00000000000000000000000000000100 V
b00000000000000000000000000000100 X
b011 Y
b000 Z
b00000000000000000000000000000100 [
b00000000000000100 \
1]
0b
b00000000000000000000000000100000 c
b00000000000000000000000000100000 e
b00000000000000000000000000100000 f
b00000000000000000000000000100000 g
#14
0]
#15
b00000000000000000000000000100000 D
b00000000000000000000000000100100 E
b00000100110000000000000011101111 F
b00001 G
b0000010 J
b01100 N
b00000000100000 O
b00000000000000000000000001001100 V
b00000000000000000000000001001100 X
b00000000000000000000000001001100 [
b00000000001001100 \
1]
b00000000000000000000000000000001 a
b00000000000000000000000001101100 c
b00000000000000000000000000100100 e
b00000000000000000000000001101100 f
b00000000000000000000000001101100 g
#16
b00000000000000000000000000100100 %
0]
#17
b00000000000000000000000001101100 D
b00000000000000000000000001110000 E
b00000000000101011000010110010011 F
b01011 G
b0010011 I
b0000000 J
0K
b01011 M
b00001 N
b00000001101100 O
b00 Q
0S
b00000000000000000000000000000001 V
b00000000000000000000000000000001 X
b000 Y
b010 Z
b00000000000000000000000000000001 [
b00000000000000001 \
1]
b00000000000000000000000000100100 a
b00000000000000000000000001101101 c
b00000000000000000000000000000001 e
b00000000000000000000000001101101 f
b00000000000000000000000001110000 g
#18
b00000000000000000000000000000001 /
b00000000000000000000000000000010 X
b00000000000000010 \
0]
b00000000000000000000000000000001 `
1b
b00000000000000000000000000000010 e
#19
b00000000000000000000000001110000 D
b00000000000000000000000001110100 E
b11111111001101011001111011100011 F
b11101 G
b001 H
b1100011 I
b1111111 J
1K
1L
b10011 N
b00000001110000 O
0P
1S
b0001 T
0U
b11111111111111111111111111111100 V
b11111111111111111111111111111110 X
b010 Y
b001 Z
b00000000000000000000000000000011 [
b11111111111111110 \
1]
b00000000000000000000000000000011 a
b00000000000000000000000001101100 c
b11111111111111111111111111111110 e
b00000000000000000000000001101100 f
b00000000000000000000000001101100 g
#20
0]
#21
b00000000000000000000000001101100 D
b00000000000000000000000001110000 E
b00000000000101011000010110010011 F
b01011 G
b000 H
b0010011 I
b0000000 J
0K
0L
b00001 N
b00000001101100 O
1P
0S
b0000 T
1U
b00000000000000000000000000000001 V
b00000000000000000000000000000010 X
b000 Y
b010 Z
b00000000000000000000000000000001 [
b00000000000000010 \
1]
b00000000000000000000000000100100 a
b00000000000000000000000001101101 c
b00000000000000000000000000000010 e
b00000000000000000000000001101101 f
b00000000000000000000000001110000 g
#22
b00000000000000000000000000000010 /
b00000000000000000000000000000011 X
b00000000000000011 \
0]
b00000000000000000000000000000010 `
0b
b00000000000000000000000000000011 e
#23
b00000000000000000000000001110000 D
b00000000000000000000000001110100 E
b11111111001101011001111011100011 F
b11101 G
b001 H
b1100011 I
b1111111 J
1K
1L
b10011 N
b00000001110000 O
0P
1S
b0001 T
0U
b11111111111111111111111111111100 V
b11111111111111111111111111111111 X
b010 Y
b001 Z
b00000000000000000000000000000011 [
b11111111111111111 \
1]
b00000000000000000000000000000011 a
1b
b00000000000000000000000001101100 c
b11111111111111111111111111111111 e
b00000000000000000000000001101100 f
b00000000000000000000000001101100 g
#24
0]
#25
b00000000000000000000000001101100 D
b00000000000000000000000001110000 E
b00000000000101011000010110010011 F
b01011 G
b000 H
b0010011 I
b0000000 J
0K
0L
b00001 N
b00000001101100 O
1P
0S
b0000 T
1U
b00000000000000000000000000000001 V
b00000000000000000000000000000011 X
b000 Y
b010 Z
b00000000000000000000000000000001 [
b00000000000000011 \
1]
b00000000000000000000000000100100 a
0b
b00000000000000000000000001101101 c
b00000000000000000000000000000011 e
b00000000000000000000000001101101 f
b00000000000000000000000001110000 g
#26
b00000000000000000000000000000011 /
b00000000000000000000000000000100 X
b00000000000000100 \
0]
b00000000000000000000000000000011 `
b00000000000000000000000000000100 e
#27
b00000000000000000000000001110000 D
b00000000000000000000000001110100 E
b11111111001101011001111011100011 F
b11101 G
b001 H
b1100011 I
b1111111 J
1K
1L
b10011 N
b00000001110000 O
0P
b0001 T
0U
b11111111111111111111111111111100 V
b00000000000000000000000000000000 X
b010 Y
b001 Z
b00000000000000000000000000000011 [
b00000000000000000 \
1]
b00000000000000000000000000000011 a
b00000000000000000000000001101100 c
b00000000000000000000000000000000 e
b00000000000000000000000001101100 f
b00000000000000000000000001110100 g
#28
0]
#29
b00000000000000000000000001110100 D
b00000000000000000000000001111000 E
b00000000000000000000010110010011 F
b01011 G
b000 H
b0010011 I
b0000000 J
0K
0L
b00000 M
b00000 N
b00000001110100 O
1P
b0000 T
1U
b00000000000000000000000000000000 V
b000 Y
b010 Z
b00000000000000000000000000000000 [
1]
b00000000000000000000000000000000 `
b00000000000000000000000000000000 a
1b
b00000000000000000000000001110100 c
b00000000000000000000000001110100 f
b00000000000000000000000001111000 g
#30
b00000000000000000000000000000000 /
0]
#31
b00000000000000000000000001111000 D
b00000000000000000000000001111100 E
b00000000000000001000000001100111 F
b00000 G
b1100111 I
1K
b00001 M
b00000001111000 O
1S
1W
b00000000000000000000000000100100 X
b000 Z
b00000000000100100 \
1]
b00000000000000000000000000100100 `
0b
b00000000000000000000000000100100 c
b00000000000000000000000000100100 e
b00000000000000000000000001111000 f
b00000000000000000000000000100100 g
#32
0]
#33
b00000000000000000000000000100100 D
b00000000000000000000000000101000 E
b00000000000101010001010100010011 F
b01010 G
b001 H
b0010011 I
0K
b01010 M
b00001 N
b00000000100100 O
0S
b0111 T
b00000000000000000000000000000001 V
0W
b00000000000000000000000000000000 X
b010 Z
b00000000000000000000000000000001 [
b00000000000000000 \
1]
b00000000000000000000000000000000 `
b00000000000000000000000000100100 a
1b
b00000000000000000000000000100101 c
b00000000000000000000000000000000 e
b00000000000000000000000000100101 f
b00000000000000000000000000101000 g
#34
0]
#35
b00000000000000000000000000101000 D
b00000000000000000000000000101100 E
b00000000000101010000010100010011 F
b000 H
b00000000101000 O
b0000 T
b00000000000000000000000000000001 X
b00000000000000001 \
1]
0b
b00000000000000000000000000101001 c
b00000000000000000000000000000001 e
b00000000000000000000000000101001 f
b00000000000000000000000000101100 g
#36
b00000000000000000000000000000001 .
b00000000000000000000000000000010 X
b00000000000000010 \
0]
b00000000000000000000000000000001 _
b00000000000000000000000000000001 `
1b
b00000000000000000000000000000010 e
#37
b00000000000000000000000000101100 D
b00000000000000000000000000110000 E
b11111111001001010001101011100011 F
b10101 G
b001 H
b1100011 I
b1111111 J
1K
1L
b10010 N
b00000000101100 O
0P
1S
b0001 T
0U
b11111111111111111111111111110100 V
b11111111111111111111111100000010 X
b010 Y
b001 Z
b00000000000000000000000011111111 [
b11111111100000010 \
1]
b00000000000000000000000011111111 a
b00000000000000000000000000100000 c
b11111111111111111111111100000010 e
b00000000000000000000000000100000 f
b00000000000000000000000000100000 g
#38
0]
#39
b00000000000000000000000000100000 D
b00000000000000000000000000100100 E
b00000100110000000000000011101111 F
b00001 G
b000 H
b1101111 I
b0000010 J
0L
b00000 M
b01100 N
b00000000100000 O
1P
b10 Q
b0000 T
1U
b00000000000000000000000001001100 V
b00000000000000000000000001001100 X
b011 Y
b000 Z
b00000000000000000000000001001100 [
b00000000001001100 \
1]
b00000000000000000000000000000000 `
b00000000000000000000000000000001 a
0b
b00000000000000000000000001101100 c
b00000000000000000000000000100100 e
b00000000000000000000000001101100 f
b00000000000000000000000001101100 g
#40
0]
#41
b00000000000000000000000001101100 D
b00000000000000000000000001110000 E
b00000000000101011000010110010011 F
b01011 G
b0010011 I
b0000000 J
0K
b01011 M
b00001 N
b00000001101100 O
b00 Q
0S
b00000000000000000000000000000001 V
b00000000000000000000000000000001 X
b000 Y
b010 Z
b00000000000000000000000000000001 [
b00000000000000001 \
1]
b00000000000000000000000000100100 a
b00000000000000000000000001101101 c
b00000000000000000000000000000001 e
b00000000000000000000000001101101 f
b00000000000000000000000001110000 g
#42
b00000000000000000000000000000001 /
b00000000000000000000000000000010 X
b00000000000000010 \
0]
b00000000000000000000000000000001 `
1b
b00000000000000000000000000000010 e
#43
b00000000000000000000000001110000 D
b00000000000000000000000001110100 E
b11111111001101011001111011100011 F
b11101 G
b001 H
b1100011 I
b1111111 J
1K
1L
b10011 N
b00000001110000 O
0P
1S
b0001 T
0U
b11111111111111111111111111111100 V
b11111111111111111111111111111110 X
b010 Y
b001 Z
b00000000000000000000000000000011 [
b11111111111111110 \
1]
b00000000000000000000000000000011 a
b00000000000000000000000001101100 c
b11111111111111111111111111111110 e
b00000000000000000000000001101100 f
b00000000000000000000000001101100 g
#44
0]
#45
b00000000000000000000000001101100 D
b00000000000000000000000001110000 E
b00000000000101011000010110010011 F
b01011 G
b000 H
b0010011 I
b0000000 J
0K
0L
b00001 N
b00000001101100 O
1P
0S
b0000 T
1U
b00000000000000000000000000000001 V
b00000000000000000000000000000010 X
b000 Y
b010 Z
b00000000000000000000000000000001 [
b00000000000000010 \
1]
b00000000000000000000000000100100 a
b00000000000000000000000001101101 c
b00000000000000000000000000000010 e
b00000000000000000000000001101101 f
b00000000000000000000000001110000 g
#46
b00000000000000000000000000000010 /
b00000000000000000000000000000011 X
b00000000000000011 \
0]
b00000000000000000000000000000010 `
0b
b00000000000000000000000000000011 e
#47
b00000000000000000000000001110000 D
b00000000000000000000000001110100 E
b11111111001101011001111011100011 F
b11101 G
b001 H
b1100011 I
b1111111 J
1K
1L
b10011 N
b00000001110000 O
0P
1S
b0001 T
0U
b11111111111111111111111111111100 V
b11111111111111111111111111111111 X
b010 Y
b001 Z
b00000000000000000000000000000011 [
b11111111111111111 \
1]
b00000000000000000000000000000011 a
1b
b00000000000000000000000001101100 c
b11111111111111111111111111111111 e
b00000000000000000000000001101100 f
b00000000000000000000000001101100 g
#48
0]
#49
b00000000000000000000000001101100 D
b00000000000000000000000001110000 E
b00000000000101011000010110010011 F
b01011 G
b000 H
b0010011 I
b0000000 J
0K
0L
b00001 N
b00000001101100 O
1P
0S
b0000 T
1U
b00000000000000000000000000000001 V
b00000000000000000000000000000011 X
b000 Y
b010 Z
b00000000000000000000000000000001 [
b00000000000000011 \
1]
b00000000000000000000000000100100 a
0b
b00000000000000000000000001101101 c
b00000000000000000000000000000011 e
b00000000000000000000000001101101 f
b00000000000000000000000001110000 g
#50
b00000000000000000000000000000011 /
b00000000000000000000000000000100 X
b00000000000000100 \
0]
b00000000000000000000000000000011 `
b00000000000000000000000000000100 e
#51
b00000000000000000000000001110000 D
b00000000000000000000000001110100 E
b11111111001101011001111011100011 F
b11101 G
b001 H
b1100011 I
b1111111 J
1K
1L
b10011 N
b00000001110000 O
0P
b0001 T
0U
b11111111111111111111111111111100 V
b00000000000000000000000000000000 X
b010 Y
b001 Z
b00000000000000000000000000000011 [
b00000000000000000 \
1]
b00000000000000000000000000000011 a
b00000000000000000000000001101100 c
b00000000000000000000000000000000 e
b00000000000000000000000001101100 f
b00000000000000000000000001110100 g
#52
0]
#53
b00000000000000000000000001110100 D
b00000000000000000000000001111000 E
b00000000000000000000010110010011 F
b01011 G
b000 H
b0010011 I
b0000000 J
0K
0L
b00000 M
b00000 N
b00000001110100 O
1P
b0000 T
1U
b00000000000000000000000000000000 V
b000 Y
b010 Z
b00000000000000000000000000000000 [
1]
b00000000000000000000000000000000 `
b00000000000000000000000000000000 a
1b
b00000000000000000000000001110100 c
b00000000000000000000000001110100 f
b00000000000000000000000001111000 g
#54
b00000000000000000000000000000000 /
0]
#55
b00000000000000000000000001111000 D
b00000000000000000000000001111100 E
b00000000000000001000000001100111 F
b00000 G
b1100111 I
1K
b00001 M
b00000001111000 O
1S
1W
b00000000000000000000000000100100 X
b000 Z
b00000000000100100 \
1]
b00000000000000000000000000100100 `
0b
b00000000000000000000000000100100 c
b00000000000000000000000000100100 e
b00000000000000000000000001111000 f
b00000000000000000000000000100100 g
#56
0]
#57
b00000000000000000000000000100100 D
b00000000000000000000000000101000 E
b00000000000101010001010100010011 F
b01010 G
b001 H
b0010011 I
0K
b01010 M
b00001 N
b00000000100100 O
0S
b0111 T
b00000000000000000000000000000001 V
0W
b00000000000000000000000000000010 X
b010 Z
b00000000000000000000000000000001 [
b00000000000000010 \
1]
b00000000000000000000000000000001 `
b00000000000000000000000000100100 a
b00000000000000000000000000100101 c
b00000000000000000000000000000010 e
b00000000000000000000000000100101 f
b00000000000000000000000000101000 g
#58
b00000000000000000000000000000010 .
b00000000000000000000000000000100 X
b00000000000000100 \
0]
b00000000000000000000000000000010 _
b00000000000000000000000000000010 `
1b
b00000000000000000000000000000100 e
#59
b00000000000000000000000000101000 D
b00000000000000000000000000101100 E
b00000000000101010000010100010011 F
b000 H
b00000000101000 O
b0000 T
b00000000000000000000000000000011 X
b00000000000000011 \
1]
0b
b00000000000000000000000000101001 c
b00000000000000000000000000000011 e
b00000000000000000000000000101001 f
b00000000000000000000000000101100 g
#60
b00000000000000000000000000000011 .
b00000000000000000000000000000100 X
b00000000000000100 \
0]
b00000000000000000000000000000011 _
b00000000000000000000000000000011 `
b00000000000000000000000000000100 e
#61
b00000000000000000000000000101100 D
b00000000000000000000000000110000 E
b11111111001001010001101011100011 F
b10101 G
b001 H
b1100011 I
b1111111 J
1K
1L
b10010 N
b00000000101100 O
0P
1S
b0001 T
0U
b11111111111111111111111111110100 V
b11111111111111111111111100000100 X
b010 Y
b001 Z
b00000000000000000000000011111111 [
b11111111100000100 \
1]
b00000000000000000000000011111111 a
1b
b00000000000000000000000000100000 c
b11111111111111111111111100000100 e
b00000000000000000000000000100000 f
b00000000000000000000000000100000 g
#62
0]
#63
b00000000000000000000000000100000 D
b00000000000000000000000000100100 E
b00000100110000000000000011101111 F
b00001 G
b000 H
b1101111 I
b0000010 J
0L
b00000 M
b01100 N
b00000000100000 O
1P
b10 Q
b0000 T
1U
b00000000000000000000000001001100 V
b00000000000000000000000001001100 X
b011 Y
b000 Z
b00000000000000000000000001001100 [
b00000000001001100 \
1]
b00000000000000000000000000000000 `
b00000000000000000000000000000001 a
0b
b00000000000000000000000001101100 c
b00000000000000000000000000100100 e
b00000000000000000000000001101100 f
b00000000000000000000000001101100 g
#64
0]
#65
b00000000000000000000000001101100 D
b00000000000000000000000001110000 E
b00000000000101011000010110010011 F
b01011 G
b0010011 I
b0000000 J
0K
b01011 M
b00001 N
b00000001101100 O
b00 Q
0S
b00000000000000000000000000000001 V
b00000000000000000000000000000001 X
b000 Y
b010 Z
b00000000000000000000000000000001 [
b00000000000000001 \
1]
b00000000000000000000000000100100 a
b00000000000000000000000001101101 c
b00000000000000000000000000000001 e
b00000000000000000000000001101101 f
b00000000000000000000000001110000 g
#66
b00000000000000000000000000000001 /
b00000000000000000000000000000010 X
b00000000000000010 \
0]
b00000000000000000000000000000001 `
1b
b00000000000000000000000000000010 e
