tb/tests/unit_tests/cache_2way/cache_test.vcd
$version Generated by VerilatedVcd $end
$date Fri Dec  5 14:17:36 2025 $end
$timescale 1ps $end

 $scope module TOP $end
  $var wire  1 P cache_hit $end
  $var wire  1 H clk $end
  $var wire 32 L mem_addr [31:0] $end
  $var wire 32 N mem_r_data [31:0] $end
  $var wire  1 O mem_ready $end
  $var wire  1 J mem_valid $end
  $var wire 32 M mem_w_data [31:0] $end
  $var wire  1 K mem_we $end
  $var wire  1 I rst $end
  $scope module mmu $end
   $var wire 32 U ADDR_WIDTH [31:0] $end
   $var wire 32 V CACHE_SIZE [31:0] $end
   $var wire 32 U DATA_WIDTH [31:0] $end
   $var wire 32 W LINE_SIZE [31:0] $end
   $var wire 32 X OFFSET_BITS [31:0] $end
   $var wire  1 P cache_hit $end
   $var wire  1 5 cache_hit_int $end
   $var wire 32 4 cache_r_data [31:0] $end
   $var wire  1 H clk $end
   $var wire 32 $ fill_addr [31:0] $end
   $var wire  2 ) fill_count [1:0] $end
   $var wire 32 % fill_data [31:0] $end
   $var wire  1 # fill_en $end
   $var wire  1 & fill_mark_valid $end
   $var wire 32 L mem_addr [31:0] $end
   $var wire 32 N mem_r_data [31:0] $end
   $var wire  1 O mem_ready $end
   $var wire  1 J mem_valid $end
   $var wire 32 M mem_w_data [31:0] $end
   $var wire  1 K mem_we $end
   $var wire 32 ( miss_addr_base [31:0] $end
   $var wire 32 6 ram_addr [31:0] $end
   $var wire 32 7 ram_r_data [31:0] $end
   $var wire 32 M ram_w_data [31:0] $end
   $var wire  1 8 ram_we $end
   $var wire  1 I rst $end
   $var wire 32 * saved_mem_addr [31:0] $end
   $var wire  2 ' state [1:0] $end
   $scope module u_l1 $end
    $var wire 32 U ADDR_WIDTH [31:0] $end
    $var wire 32 X BYTES_PER_WORD [31:0] $end
    $var wire 32 V CACHE_SIZE [31:0] $end
    $var wire 32 U DATA_WIDTH [31:0] $end
    $var wire 32 Z LINES [31:0] $end
    $var wire 32 [ LINE_BITS [31:0] $end
    $var wire 32 W LINE_SIZE [31:0] $end
    $var wire 32 X OFFSET_BITS [31:0] $end
    $var wire 32 [ SETS [31:0] $end
    $var wire 32 \ SET_BITS [31:0] $end
    $var wire 32 ] TAG_BITS [31:0] $end
    $var wire 32 Y WAYS [31:0] $end
    $var wire 32 X WORDS_PER_LINE [31:0] $end
    $var wire 32 ^ WORD_SEL_BITS [31:0] $end
    $var wire  1 5 cache_hit $end
    $var wire  1 H clk $end
    $var wire 32 $ fill_addr [31:0] $end
    $var wire 32 % fill_data [31:0] $end
    $var wire  1 # fill_en $end
    $var wire  1 & fill_mark_valid $end
    $var wire  4 - fill_offset [3:0] $end
    $var wire  7 , fill_set [6:0] $end
    $var wire 21 + fill_tag [20:0] $end
    $var wire  2 . fill_word_index [1:0] $end
    $var wire  1 E hit_way0 $end
    $var wire  1 F hit_way1 $end
    $var wire 32 0 i [31:0] $end
    $var wire 128 = line_data[0] [127:0] $end
    $var wire 128 A line_data[1] [127:0] $end
    $var wire 21 9 line_tag[0] [20:0] $end
    $var wire 21 : line_tag[1] [20:0] $end
    $var wire  1 ; line_valid[0] $end
    $var wire  1 < line_valid[1] $end
    $var wire 32 4 line_word [31:0] $end
    $var wire 32 L mem_addr [31:0] $end
    $var wire  4 S mem_offset [3:0] $end
    $var wire 32 4 mem_r_data [31:0] $end
    $var wire  7 R mem_set [6:0] $end
    $var wire 21 Q mem_tag [20:0] $end
    $var wire  1 J mem_valid $end
    $var wire 32 M mem_w_data [31:0] $end
    $var wire  1 K mem_we $end
    $var wire  2 T mem_word_index [1:0] $end
    $var wire  1 / repl_way $end
    $var wire  1 I rst $end
    $scope module unnamedblk1 $end
     $var wire 32 _ w [31:0] $end
    $upscope $end
    $scope module unnamedblk2 $end
     $var wire  1 1 v0 $end
     $var wire  1 2 v1 $end
    $upscope $end
    $scope module unnamedblk3 $end
     $var wire 32 3 w [31:0] $end
    $upscope $end
   $upscope $end
   $scope module u_ram $end
    $var wire 32 ` DATA_WIDTH [31:0] $end
    $var wire 32 a SIZE [31:0] $end
    $var wire 32 U WIDTH [31:0] $end
    $var wire 32 6 addr [31:0] $end
    $var wire  1 H clk $end
    $var wire 17 G index [16:0] $end
    $var wire 32 7 read_data [31:0] $end
    $var wire 32 M write_data [31:0] $end
    $var wire  1 8 write_enable $end
   $upscope $end
  $upscope $end
 $upscope $end
$enddefinitions $end


#0
0#
b00000000000000000000000000000000 $
b00000000000000000000000000000000 %
0&
b00 '
b00000000000000000000000000000000 (
b00 )
b00000000000000000000000000000000 *
b000000000000000000000 +
b0000000 ,
b0000 -
b00 .
0/
b00000000000000000000000000000000 0
01
02
b00000000000000000000000000000000 3
b00000000000000000000000000000000 4
05
b00000000000000000000000000000000 6
b00000000000000000000000000000000 7
08
b000000000000000000000 9
b000000000000000000000 :
0;
0<
b00000000000000000000000000000000000000000000000000000000000000000000000000000000000000000000000000000000000000000000000000000000 =
b00000000000000000000000000000000000000000000000000000000000000000000000000000000000000000000000000000000000000000000000000000000 A
0E
0F
b00000000000000000 G
0H
1I
0J
0K
b00000000000000000000000000000000 L
b00000000000000000000000000000000 M
b00000000000000000000000000000000 N
0O
0P
b000000000000000000000 Q
b0000000 R
b0000 S
b00 T
b00000000000000000000000000100000 U
b00000000000000000001000000000000 V
b00000000000000000000000000010000 W
b00000000000000000000000000000100 X
b00000000000000000000000000000010 Y
b00000000000000000000000100000000 Z
b00000000000000000000000010000000 [
b00000000000000000000000000000111 \
b00000000000000000000000000010101 ]
b00000000000000000000000000000010 ^
b00000000000000000000000000000010 _
b00000000000000000000000000001000 `
b00000000000000000000000000010001 a
#1
b00000000000000000000000010000000 0
b00000000000000000000000000000010 3
1H
#2
0H
#3
1H
#4
0H
#5
1H
#6
0H
#7
1H
#8
0H
#9
1H
#10
b00000000000000000000001011011100 6
18
b00000001011011100 G
0H
0I
1J
1K
b00000000000000000000001011011100 L
b00100001011101100000100010000001 M
b0101101 R
b1100 S
b11 T
#11
b00000000000000000000001011011100 *
b00100001011101100000100010000001 7
1H
1O
#12
08
0H
0J
#13
1H
0O
#14
b00000000000000000000001011110000 6
b00000000000000000000000000000000 7
18
b00000001011110000 G
0H
1J
b00000000000000000000001011110000 L
b11010011100100010101000101111110 M
b0101111 R
b0000 S
b00 T
#15
b00000000000000000000001011110000 *
b11010011100100010101000101111110 7
1H
1O
#16
08
0H
0J
#17
1H
0O
#18
b00000000000000000000000100010100 6
b00000000000000000000000000000000 7
b00000000100010100 G
0H
1J
0K
b00000000000000000000000100010100 L
b0010001 R
b0100 S
b01 T
#19
b01 '
b00000000000000000000000100010000 (
b00000000000000000000000100010100 *
b00000000000000000000000100010000 6
b00000000100010000 G
1H
#20
0H
#21
1#
b00000000000000000000000100010000 $
b01 )
b0010001 ,
b00000000000000000000000100010100 6
b00000000100010100 G
1H
#22
0H
#23
b00000000000000000000000100010100 $
b10 )
b0100 -
b01 .
b00000000000000000000000100011000 6
b00000000100011000 G
1H
#24
0H
#25
b00000000000000000000000100011000 $
b11 )
b1000 -
b10 .
b00000000000000000000000100011100 6
b00000000100011100 G
1H
#26
0H
#27
b00000000000000000000000100011100 $
1&
b00 '
b1100 -
b11 .
b00000000000000000000000100010100 6
b00000000100010100 G
1H
1O
#28
0H
0J
#29
0#
0&
1/
11
15
1;
1E
1H
0O
1P
#30
05
b00000000000000000000001101001100 6
18
0;
0E
b00000001101001100 G
0H
1J
1K
b00000000000000000000001101001100 L
b10100111001101101001110100111011 M
0P
b0110100 R
b1100 S
b11 T
#31
b00000000000000000000001101001100 *
b10100111001101101001110100111011 7
1H
1O
#32
08
0H
0J
#33
1H
0O
#34
b00000000000000000000001011000100 6
b00000000000000000000000000000000 7
18
b00000001011000100 G
0H
1J
b00000000000000000000001011000100 L
b10100111010100000101101011110111 M
b0101100 R
b0100 S
b01 T
#35
b00000000000000000000001011000100 *
b10100111010100000101101011110111 7
1H
1O
#36
08
0H
0J
#37
1H
0O
#38
b00000000000000000000001001111000 6
b00000000000000000000000000000000 7
b00000001001111000 G
0H
1J
0K
b00000000000000000000001001111000 L
b0100111 R
b1000 S
b10 T
#39
b01 '
b00000000000000000000001001110000 (
b00 )
b00000000000000000000001001111000 *
b00000000000000000000001001110000 6
b00000001001110000 G
1H
#40
0H
#41
1#
b00000000000000000000001001110000 $
b01 )
b0100111 ,
b0000 -
b00 .
0/
01
b00000000000000000000001001110100 6
b00000001001110100 G
1H
#42
0H
#43
b00000000000000000000001001110100 $
b10 )
b0100 -
b01 .
b00000000000000000000001001111000 6
b00000001001111000 G
1H
#44
0H
#45
b00000000000000000000001001111000 $
b11 )
b1000 -
b10 .
b00000000000000000000001001111100 6
b00000001001111100 G
1H
#46
0H
#47
b00000000000000000000001001111100 $
1&
b00 '
b1100 -
b11 .
b00000000000000000000001001111000 6
b00000001001111000 G
1H
1O
#48
0H
0J
#49
0#
0&
1/
11
15
1;
1E
1H
0O
1P
#50
05
b00000000000000000000001101100000 6
18
0;
0E
b00000001101100000 G
0H
1J
1K
b00000000000000000000001101100000 L
b01001010100111111110011010001010 M
0P
b0110110 R
b0000 S
b00 T
#51
b00000000000000000000001101100000 *
b01001010100111111110011010001010 7
1H
1O
#52
08
0H
0J
#53
1H
0O
#54
b00000000000000000000000110110000 6
b00000000000000000000000000000000 7
18
b00000000110110000 G
0H
1J
b00000000000000000000000110110000 L
b11001110101010100111100100000111 M
b0011011 R
#55
b00000000000000000000000110110000 *
b11001110101010100111100100000111 7
1H
1O
#56
08
0H
0J
#57
1H
0O
#58
b00000000000000000000001010000000 6
b00000000000000000000000000000000 7
b00000001010000000 G
0H
1J
0K
b00000000000000000000001010000000 L
b0101000 R
#59
b01 '
b00000000000000000000001010000000 (
b00 )
b00000000000000000000001010000000 *
1H
#60
0H
#61
1#
b00000000000000000000001010000000 $
b01 )
b0101000 ,
b0000 -
b00 .
0/
01
b00000000000000000000001010000100 6
b00000001010000100 G
1H
#62
0H
#63
b00000000000000000000001010000100 $
b10 )
b0100 -
b01 .
b00000000000000000000001010001000 6
b00000001010001000 G
1H
#64
0H
#65
b00000000000000000000001010001000 $
b11 )
b1000 -
b10 .
b00000000000000000000001010001100 6
b00000001010001100 G
1H
#66
0H
#67
b00000000000000000000001010001100 $
1&
b00 '
b1100 -
b11 .
b00000000000000000000001010000000 6
b00000001010000000 G
1H
1O
#68
0H
0J
#69
0#
0&
1/
11
15
1;
1E
1H
0O
1P
#70
b00000000000000000000001010000100 6
b00000001010000100 G
0H
1J
b00000000000000000000001010000100 L
b0100 S
b01 T
#71
b00000000000000000000001010000100 *
1H
1O
#72
0H
0J
#73
1H
0O
#74
05
b00000000000000000000001101101100 6
0;
0E
b00000001101101100 G
0H
1J
b00000000000000000000001101101100 L
0P
b0110110 R
b1100 S
b11 T
#75
b01 '
b00000000000000000000001101100000 (
b00 )
b00000000000000000000001101101100 *
b00000000000000000000001101100000 6
b01001010100111111110011010001010 7
b00000001101100000 G
1H
#76
0H
#77
1#
b00000000000000000000001101100000 $
b01001010100111111110011010001010 %
b01 )
b0110110 ,
b0000 -
b00 .
0/
01
b00000000000000000000001101100100 6
b00000000000000000000000000000000 7
b00000001101100100 G
1H
#78
0H
#79
b00000000000000000000001101100100 $
b00000000000000000000000000000000 %
b10 )
b0100 -
b01 .
b00000000000000000000001101101000 6
b00000000000000000000000000000000000000000000000000000000000000000000000000000000000000000000000001001010100111111110011010001010 =
b00000001101101000 G
1H
#80
0H
#81
b00000000000000000000001101101000 $
b11 )
b1000 -
b10 .
b00000000000000000000001101101100 6
b00000001101101100 G
1H
#82
0H
#83
b00000000000000000000001101101100 $
1&
b00 '
b1100 -
b11 .
1H
1O
#84
0H
0J
#85
0#
0&
1/
11
15
1;
1E
1H
0O
1P
#86
05
b00000000000000000000000011001100 6
0;
b00000000000000000000000000000000000000000000000000000000000000000000000000000000000000000000000000000000000000000000000000000000 =
0E
b00000000011001100 G
0H
1J
b00000000000000000000000011001100 L
0P
b0001100 R
#87
b01 '
b00000000000000000000000011000000 (
b00 )
b00000000000000000000000011001100 *
b00000000000000000000000011000000 6
b00000000011000000 G
1H
#88
0H
#89
1#
b00000000000000000000000011000000 $
b01 )
b0001100 ,
b0000 -
b00 .
0/
01
b00000000000000000000000011000100 6
b00000000011000100 G
1H
#90
0H
#91
b00000000000000000000000011000100 $
b10 )
b0100 -
b01 .
b00000000000000000000000011001000 6
b00000000011001000 G
1H
#92
0H
#93
b00000000000000000000000011001000 $
b11 )
b1000 -
b10 .
b00000000000000000000000011001100 6
b00000000011001100 G
1H
#94
0H
#95
b00000000000000000000000011001100 $
1&
b00 '
b1100 -
b11 .
1H
1O
#96
0H
0J
#97
0#
0&
1/
11
15
1;
1E
1H
0O
1P
#98
05
b00000000000000000000001101111000 6
18
0;
0E
b00000001101111000 G
0H
1J
1K
b00000000000000000000001101111000 L
b01011101001100010000101011111100 M
0P
b0110111 R
b1000 S
b10 T
#99
b00000000000000000000001101111000 *
b01011101001100010000101011111100 7
1H
1O
#100
08
0H
0J
#101
1H
0O
#102
b00000000000000000000000100110100 6
b00000000000000000000000000000000 7
18
b00000000100110100 G
0H
1J
b00000000000000000000000100110100 L
b00100001000110101100001001110111 M
b0010011 R
b0100 S
b01 T
#103
b00000000000000000000000100110100 *
b00100001000110101100001001110111 7
1H
1O
#104
08
0H
0J
#105
1H
0O
#106
b00000000000000000000001110101100 6
b00000000000000000000000000000000 7
b00000001110101100 G
0H
1J
0K
b00000000000000000000001110101100 L
b0111010 R
b1100 S
b11 T
#107
b01 '
b00000000000000000000001110100000 (
b00 )
b00000000000000000000001110101100 *
b00000000000000000000001110100000 6
b00000001110100000 G
1H
#108
0H
#109
1#
b00000000000000000000001110100000 $
b01 )
b0111010 ,
b0000 -
b00 .
0/
01
b00000000000000000000001110100100 6
b00000001110100100 G
1H
#110
0H
#111
b00000000000000000000001110100100 $
b10 )
b0100 -
b01 .
b00000000000000000000001110101000 6
b00000001110101000 G
1H
#112
0H
#113
b00000000000000000000001110101000 $
b11 )
b1000 -
b10 .
b00000000000000000000001110101100 6
b00000001110101100 G
1H
#114
0H
#115
b00000000000000000000001110101100 $
1&
b00 '
b1100 -
b11 .
1H
1O
#116
0H
0J
#117
0#
0&
1/
11
15
1;
1E
1H
0O
1P
#118
b00000000000000000000000100010100 6
b00000000100010100 G
0H
1J
b00000000000000000000000100010100 L
b0010001 R
b0100 S
b01 T
#119
b00000000000000000000000100010100 *
1H
1O
#120
0H
0J
#121
1H
0O
#122
05
b00000000000000000000000010100100 6
18
0;
0E
b00000000010100100 G
0H
1J
1K
b00000000000000000000000010100100 L
b01011101000110111110010001001000 M
0P
b0001010 R
#123
b00000000000000000000000010100100 *
b01011101000110111110010001001000 7
1H
1O
#124
08
0H
0J
#125
1H
0O
#126
b00000000000000000000000001101100 6
b00000000000000000000000000000000 7
b00000000001101100 G
0H
1J
0K
b00000000000000000000000001101100 L
b0000110 R
b1100 S
b11 T
#127
b01 '
b00000000000000000000000001100000 (
b00 )
b00000000000000000000000001101100 *
b00000000000000000000000001100000 6
b00000000001100000 G
1H
#128
0H
#129
1#
b00000000000000000000000001100000 $
b01 )
b0000110 ,
b0000 -
b00 .
0/
01
b00000000000000000000000001100100 6
b00000000001100100 G
1H
#130
0H
#131
b00000000000000000000000001100100 $
b10 )
b0100 -
b01 .
b00000000000000000000000001101000 6
b00000000001101000 G
1H
#132
0H
#133
b00000000000000000000000001101000 $
b11 )
b1000 -
b10 .
b00000000000000000000000001101100 6
b00000000001101100 G
1H
#134
0H
#135
b00000000000000000000000001101100 $
1&
b00 '
b1100 -
b11 .
1H
1O
#136
0H
0J
#137
0#
0&
1/
11
15
1;
1E
1H
0O
1P
#138
05
b00000000000000000000001100101100 6
0;
0E
b00000001100101100 G
0H
1J
b00000000000000000000001100101100 L
0P
b0110010 R
#139
b01 '
b00000000000000000000001100100000 (
b00 )
b00000000000000000000001100101100 *
b00000000000000000000001100100000 6
b00000001100100000 G
1H
#140
0H
#141
1#
b00000000000000000000001100100000 $
b01 )
b0110010 ,
b0000 -
b00 .
0/
01
b00000000000000000000001100100100 6
b00000001100100100 G
1H
#142
0H
#143
b00000000000000000000001100100100 $
b10 )
b0100 -
b01 .
b00000000000000000000001100101000 6
b00000001100101000 G
1H
#144
0H
#145
b00000000000000000000001100101000 $
b11 )
b1000 -
b10 .
b00000000000000000000001100101100 6
b00000001100101100 G
1H
#146
0H
#147
b00000000000000000000001100101100 $
1&
b00 '
b1100 -
b11 .
1H
1O
#148
0H
0J
#149
0#
0&
1/
11
15
1;
1E
1H
0O
1P
#150
b00000000000000000000000001100100 6
18
b00000000001100100 G
0H
1J
1K
b00000000000000000000000001100100 L
b11010100111101110101101001010000 M
b0000110 R
b0100 S
b01 T
#151
b00000000000000000000000001100100 *
b11010100111101110101101001010000 4
b11010100111101110101101001010000 7
b00000000000000000000000000000000000000000000000000000000000000001101010011110111010110100101000000000000000000000000000000000000 =
1H
1O
#152
08
0H
0J
#153
1H
0O
#154
b00000000000000000000000000000000 4
b00000000000000000000000001101000 6
b00000000000000000000000000000000 7
b00000000001101000 G
0H
1J
0K
b00000000000000000000000001101000 L
b1000 S
b10 T
#155
b00000000000000000000000001101000 *
1H
1O
#156
0H
0J
#157
1H
0O
#158
05
b00000000000000000000001110011000 6
0;
b00000000000000000000000000000000000000000000000000000000000000000000000000000000000000000000000000000000000000000000000000000000 =
0E
b00000001110011000 G
0H
1J
b00000000000000000000001110011000 L
0P
b0111001 R
#159
b01 '
b00000000000000000000001110010000 (
b00 )
b00000000000000000000001110011000 *
b00000000000000000000001110010000 6
b00000001110010000 G
1H
#160
0H
#161
1#
b00000000000000000000001110010000 $
b01 )
b0111001 ,
b0000 -
b00 .
0/
01
b00000000000000000000001110010100 6
b00000001110010100 G
1H
#162
0H
#163
b00000000000000000000001110010100 $
b10 )
b0100 -
b01 .
b00000000000000000000001110011000 6
b00000001110011000 G
1H
#164
0H
#165
b00000000000000000000001110011000 $
b11 )
b1000 -
b10 .
b00000000000000000000001110011100 6
b00000001110011100 G
1H
#166
0H
#167
b00000000000000000000001110011100 $
1&
b00 '
b1100 -
b11 .
b00000000000000000000001110011000 6
b00000001110011000 G
1H
1O
#168
0H
0J
#169
0#
0&
1/
11
15
1;
1E
1H
0O
1P
#170
05
b00000000000000000000001001010000 6
0;
0E
b00000001001010000 G
0H
1J
b00000000000000000000001001010000 L
0P
b0100101 R
b0000 S
b00 T
#171
b01 '
b00000000000000000000001001010000 (
b00 )
b00000000000000000000001001010000 *
1H
#172
0H
#173
1#
b00000000000000000000001001010000 $
b01 )
b0100101 ,
b0000 -
b00 .
0/
01
b00000000000000000000001001010100 6
b00000001001010100 G
1H
#174
0H
#175
b00000000000000000000001001010100 $
b10 )
b0100 -
b01 .
b00000000000000000000001001011000 6
b00000001001011000 G
1H
#176
0H
#177
b00000000000000000000001001011000 $
b11 )
b1000 -
b10 .
b00000000000000000000001001011100 6
b00000001001011100 G
1H
#178
0H
#179
b00000000000000000000001001011100 $
1&
b00 '
b1100 -
b11 .
b00000000000000000000001001010000 6
b00000001001010000 G
1H
1O
#180
0H
0J
#181
0#
0&
1/
11
15
1;
1E
1H
0O
1P
#182
05
b00000000000000000000000110100100 6
18
0;
0E
b00000000110100100 G
0H
1J
1K
b00000000000000000000000110100100 L
b10000000000011101001100100101001 M
0P
b0011010 R
b0100 S
b01 T
#183
b00000000000000000000000110100100 *
b10000000000011101001100100101001 7
1H
1O
#184
08
0H
0J
#185
1H
0O
#186
b00000000000000000000001000010000 6
b00000000000000000000000000000000 7
b00000001000010000 G
0H
1J
0K
b00000000000000000000001000010000 L
b0100001 R
b0000 S
b00 T
#187
b01 '
b00000000000000000000001000010000 (
b00 )
b00000000000000000000001000010000 *
1H
#188
0H
#189
1#
b00000000000000000000001000010000 $
b01 )
b0100001 ,
b0000 -
b00 .
0/
01
b00000000000000000000001000010100 6
b00000001000010100 G
1H
#190
0H
#191
b00000000000000000000001000010100 $
b10 )
b0100 -
b01 .
b00000000000000000000001000011000 6
b00000001000011000 G
1H
#192
0H
#193
b00000000000000000000001000011000 $
b11 )
b1000 -
b10 .
b00000000000000000000001000011100 6
b00000001000011100 G
1H
#194
0H
#195
b00000000000000000000001000011100 $
1&
b00 '
b1100 -
b11 .
b00000000000000000000001000010000 6
b00000001000010000 G
1H
1O
#196
0H
0J
#197
0#
0&
1/
11
15
1;
1E
1H
0O
1P
#198
05
b00000000000000000000000110001000 6
18
0;
0E
b00000000110001000 G
0H
1J
1K
b00000000000000000000000110001000 L
b01101010010011000000000100010111 M
0P
b0011000 R
b1000 S
b10 T
#199
b00000000000000000000000110001000 *
b01101010010011000000000100010111 7
1H
1O
#200
08
0H
0J
#201
1H
0O
#202
b00000000000000000000000000100000 6
b00000000000000000000000000000000 7
18
b00000000000100000 G
0H
1J
b00000000000000000000000000100000 L
b11000010011000001101010000111111 M
b0000010 R
b0000 S
b00 T
#203
b00000000000000000000000000100000 *
b11000010011000001101010000111111 7
1H
1O
#204
08
0H
0J
#205
1H
0O
#206
b00000000000000000000001101011000 6
b00000000000000000000000000000000 7
b00000001101011000 G
0H
1J
0K
b00000000000000000000001101011000 L
b0110101 R
b1000 S
b10 T
#207
b01 '
b00000000000000000000001101010000 (
b00 )
b00000000000000000000001101011000 *
b00000000000000000000001101010000 6
b00000001101010000 G
1H
#208
0H
#209
1#
b00000000000000000000001101010000 $
b01 )
b0110101 ,
b0000 -
b00 .
0/
01
b00000000000000000000001101010100 6
b00000001101010100 G
1H
#210
0H
#211
b00000000000000000000001101010100 $
b10 )
b0100 -
b01 .
b00000000000000000000001101011000 6
b00000001101011000 G
1H
#212
0H
#213
b00000000000000000000001101011000 $
b11 )
b1000 -
b10 .
b00000000000000000000001101011100 6
b00000001101011100 G
1H
#214
0H
#215
b00000000000000000000001101011100 $
1&
b00 '
b1100 -
b11 .
b00000000000000000000001101011000 6
b00000001101011000 G
1H
1O
#216
0H
0J
#217
0#
0&
1/
11
15
1;
1E
1H
0O
1P
#218
05
b00000000000000000000001100011000 6
0;
0E
b00000001100011000 G
0H
1J
b00000000000000000000001100011000 L
0P
b0110001 R
#219
b01 '
b00000000000000000000001100010000 (
b00 )
b00000000000000000000001100011000 *
b00000000000000000000001100010000 6
b00000001100010000 G
1H
#220
0H
#221
1#
b00000000000000000000001100010000 $
b01 )
b0110001 ,
b0000 -
b00 .
0/
01
b00000000000000000000001100010100 6
b00000001100010100 G
1H
#222
0H
#223
b00000000000000000000001100010100 $
b10 )
b0100 -
b01 .
b00000000000000000000001100011000 6
b00000001100011000 G
1H
#224
0H
#225
b00000000000000000000001100011000 $
b11 )
b1000 -
b10 .
b00000000000000000000001100011100 6
b00000001100011100 G
1H
#226
0H
#227
b00000000000000000000001100011100 $
1&
b00 '
b1100 -
b11 .
b00000000000000000000001100011000 6
b00000001100011000 G
1H
1O
#228
0H
0J
#229
0#
0&
1/
11
15
1;
1E
1H
0O
1P
#230
05
b00000000000000000000000010000000 6
18
0;
0E
b00000000010000000 G
0H
1J
1K
b00000000000000000000000010000000 L
b11010110010111100110110011100011 M
0P
b0001000 R
b0000 S
b00 T
#231
b00000000000000000000000010000000 *
b11010110010111100110110011100011 7
1H
1O
#232
08
0H
0J
#233
1H
0O
#234
b00000000000000000000000001001100 6
b00000000000000000000000000000000 7
b00000000001001100 G
0H
1J
0K
b00000000000000000000000001001100 L
b0000100 R
b1100 S
b11 T
#235
b01 '
b00000000000000000000000001000000 (
b00 )
b00000000000000000000000001001100 *
b00000000000000000000000001000000 6
b00000000001000000 G
1H
#236
0H
#237
1#
b00000000000000000000000001000000 $
b01 )
b0000100 ,
b0000 -
b00 .
0/
01
b00000000000000000000000001000100 6
b00000000001000100 G
1H
#238
0H
#239
b00000000000000000000000001000100 $
b10 )
b0100 -
b01 .
b00000000000000000000000001001000 6
b00000000001001000 G
1H
#240
0H
#241
b00000000000000000000000001001000 $
b11 )
b1000 -
b10 .
b00000000000000000000000001001100 6
b00000000001001100 G
1H
#242
0H
#243
b00000000000000000000000001001100 $
1&
b00 '
b1100 -
b11 .
1H
1O
#244
0H
0J
#245
0#
0&
1/
11
15
1;
1E
1H
0O
1P
#246
b00000000000000000000000011000100 6
18
b00000000011000100 G
0H
1J
1K
b00000000000000000000000011000100 L
b00100110011100100110110011111011 M
b0001100 R
b0100 S
b01 T
#247
b00000000000000000000000011000100 *
b00100110011100100110110011111011 4
b00100110011100100110110011111011 7
b00000000000000000000000000000000000000000000000000000000000000000010011001110010011011001111101100000000000000000000000000000000 =
1H
1O
#248
08
0H
0J
#249
1H
0O
#250
b00000000000000000000000000000000 4
05
b00000000000000000000001100000000 6
b00000000000000000000000000000000 7
0;
b00000000000000000000000000000000000000000000000000000000000000000000000000000000000000000000000000000000000000000000000000000000 =
0E
b00000001100000000 G
0H
1J
0K
b00000000000000000000001100000000 L
0P
b0110000 R
b0000 S
b00 T
#251
b01 '
b00000000000000000000001100000000 (
b00 )
b00000000000000000000001100000000 *
1H
#252
0H
#253
1#
b00000000000000000000001100000000 $
b01 )
b0110000 ,
b0000 -
b00 .
0/
01
b00000000000000000000001100000100 6
b00000001100000100 G
1H
#254
0H
#255
b00000000000000000000001100000100 $
b10 )
b0100 -
b01 .
b00000000000000000000001100001000 6
b00000001100001000 G
1H
#256
0H
#257
b00000000000000000000001100001000 $
b11 )
b1000 -
b10 .
b00000000000000000000001100001100 6
b00000001100001100 G
1H
#258
0H
#259
b00000000000000000000001100001100 $
1&
b00 '
b1100 -
b11 .
b00000000000000000000001100000000 6
b00000001100000000 G
1H
1O
#260
0H
0J
#261
0#
0&
1/
11
15
1;
1E
1H
0O
1P
#262
05
b00000000000000000000001000001000 6
0;
0E
b00000001000001000 G
0H
1J
b00000000000000000000001000001000 L
0P
b0100000 R
b1000 S
b10 T
#263
b01 '
b00000000000000000000001000000000 (
b00 )
b00000000000000000000001000001000 *
b00000000000000000000001000000000 6
b00000001000000000 G
1H
#264
0H
#265
1#
b00000000000000000000001000000000 $
b01 )
b0100000 ,
b0000 -
b00 .
0/
01
b00000000000000000000001000000100 6
b00000001000000100 G
1H
#266
0H
#267
b00000000000000000000001000000100 $
b10 )
b0100 -
b01 .
b00000000000000000000001000001000 6
b00000001000001000 G
1H
#268
0H
#269
b00000000000000000000001000001000 $
b11 )
b1000 -
b10 .
b00000000000000000000001000001100 6
b00000001000001100 G
1H
#270
0H
#271
b00000000000000000000001000001100 $
1&
b00 '
b1100 -
b11 .
b00000000000000000000001000001000 6
b00000001000001000 G
1H
1O
#272
0H
0J
#273
0#
0&
1/
11
15
1;
1E
1H
0O
1P
#274
05
b00000000000000000000001111100100 6
18
0;
0E
b00000001111100100 G
0H
1J
1K
b00000000000000000000001111100100 L
b01100010010000111110100011100000 M
0P
b0111110 R
b0100 S
b01 T
#275
b00000000000000000000001111100100 *
b01100010010000111110100011100000 7
1H
1O
#276
08
0H
0J
#277
1H
0O
#278
b00000000000000000000001111111100 6
b00000000000000000000000000000000 7
18
b00000001111111100 G
0H
1J
b00000000000000000000001111111100 L
b10010001100000100100011101110010 M
b0111111 R
b1100 S
b11 T
#279
b00000000000000000000001111111100 *
b10010001100000100100011101110010 7
1H
1O
#280
08
0H
0J
#281
1H
0O
#282
b00000000000000000000000010111100 6
b00000000000000000000000000000000 7
b00000000010111100 G
0H
1J
0K
b00000000000000000000000010111100 L
b0001011 R
#283
b01 '
b00000000000000000000000010110000 (
b00 )
b00000000000000000000000010111100 *
b00000000000000000000000010110000 6
b00000000010110000 G
1H
#284
0H
#285
1#
b00000000000000000000000010110000 $
b01 )
b0001011 ,
b0000 -
b00 .
0/
01
b00000000000000000000000010110100 6
b00000000010110100 G
1H
#286
0H
#287
b00000000000000000000000010110100 $
b10 )
b0100 -
b01 .
b00000000000000000000000010111000 6
b00000000010111000 G
1H
#288
0H
#289
b00000000000000000000000010111000 $
b11 )
b1000 -
b10 .
b00000000000000000000000010111100 6
b00000000010111100 G
1H
#290
0H
#291
b00000000000000000000000010111100 $
1&
b00 '
b1100 -
b11 .
1H
1O
#292
0H
0J
#293
0#
0&
1/
11
15
1;
1E
1H
0O
1P
#294
b00000000000000000000001000000000 6
b00000001000000000 G
0H
1J
b00000000000000000000001000000000 L
b0100000 R
b0000 S
b00 T
#295
b00000000000000000000001000000000 *
1H
1O
#296
0H
0J
#297
1H
0O
#298
05
b00000000000000000000001111000100 6
0;
0E
b00000001111000100 G
0H
1J
b00000000000000000000001111000100 L
0P
b0111100 R
b0100 S
b01 T
#299
b01 '
b00000000000000000000001111000000 (
b00 )
b00000000000000000000001111000100 *
b00000000000000000000001111000000 6
b00000001111000000 G
1H
#300
0H
#301
1#
b00000000000000000000001111000000 $
b01 )
b0111100 ,
b0000 -
b00 .
0/
01
b00000000000000000000001111000100 6
b00000001111000100 G
1H
#302
0H
#303
b00000000000000000000001111000100 $
b10 )
b0100 -
b01 .
b00000000000000000000001111001000 6
b00000001111001000 G
1H
#304
0H
#305
b00000000000000000000001111001000 $
b11 )
b1000 -
b10 .
b00000000000000000000001111001100 6
b00000001111001100 G
1H
#306
0H
#307
b00000000000000000000001111001100 $
1&
b00 '
b1100 -
b11 .
b00000000000000000000001111000100 6
b00000001111000100 G
1H
1O
#308
0H
0J
#309
0#
0&
1/
11
15
1;
1E
1H
0O
1P
#310
05
b00000000000000000000000100101100 6
0;
0E
b00000000100101100 G
0H
1J
b00000000000000000000000100101100 L
0P
b0010010 R
b1100 S
b11 T
#311
b01 '
b00000000000000000000000100100000 (
b00 )
b00000000000000000000000100101100 *
b00000000000000000000000100100000 6
b00000000100100000 G
1H
#312
0H
