rtl/alu/div.vcd
$version Generated by VerilatedVcd $end
$timescale 1ps $end
 $scope module TOP $end
  $var wire 1 / clk $end
  $var wire 1 0 start $end
  $var wire 2 1 div_ctrl [1:0] $end
  $var wire 32 2 numerator [31:0] $end
  $var wire 32 3 denominator [31:0] $end
  $var wire 32 4 result [31:0] $end
  $var wire 1 5 division_done $end
  $scope module div $end
   $var wire 32 8 D_WIDTH [31:0] $end
   $var wire 1 / clk $end
   $var wire 1 0 start $end
   $var wire 2 1 div_ctrl [1:0] $end
   $var wire 32 2 numerator [31:0] $end
   $var wire 32 3 denominator [31:0] $end
   $var wire 32 4 result [31:0] $end
   $var wire 1 5 division_done $end
   $var wire 6 # counter [5:0] $end
   $var wire 2 $ state [1:0] $end
   $var wire 2 6 next_state [1:0] $end
   $var wire 33 % rem [32:0] $end
   $var wire 32 ' quo [31:0] $end
   $var wire 32 ( div_shift [31:0] $end
   $var wire 33 ) den [32:0] $end
   $var wire 1 + sign_q $end
   $var wire 1 , sign_r $end
   $var wire 1 7 is_signed $end
   $scope module unnamedblk1 $end
    $var wire 33 - rem_next [32:0] $end
   $upscope $end
  $upscope $end
 $upscope $end
$enddefinitions $end


#0
b000000 #
b00 $
b000000000000000000000000000000000 %
b00000000000000000000000000000000 '
b00000000000000000000000000000000 (
b000000000000000000000000000000000 )
0+
0,
b000000000000000000000000000000000 -
0/
00
b00 1
b00000000000000000000000000000000 2
b00000000000000000000000000000000 3
b00000000000000000000000000000000 4
05
b00 6
17
b00000000000000000000000000100000 8
#1
1/
#2
0/
#3
1/
#4
0/
#5
1/
#6
0/
#7
1/
#8
0/
#9
1/
#10
0/
10
b00000000000000000000000000001010 2
b00000000000000000000000000000010 3
b01 6
#11
b01 $
1/
b10 6
#12
0/
00
#13
b10 $
b00000000000000000000000000001010 (
b000000000000000000000000000000010 )
1/
#14
0/
#15
b000001 #
b00000000000000000000000000010100 (
1/
#16
0/
#17
b000010 #
b00000000000000000000000000101000 (
1/
#18
0/
#19
b000011 #
b00000000000000000000000001010000 (
1/
#20
0/
#21
b000100 #
b00000000000000000000000010100000 (
1/
#22
0/
#23
b000101 #
b00000000000000000000000101000000 (
1/
#24
0/
#25
b000110 #
b00000000000000000000001010000000 (
1/
#26
0/
#27
b000111 #
b00000000000000000000010100000000 (
1/
#28
0/
#29
b001000 #
b00000000000000000000101000000000 (
1/
#30
0/
#31
b001001 #
b00000000000000000001010000000000 (
1/
#32
0/
#33
b001010 #
b00000000000000000010100000000000 (
1/
#34
0/
#35
b001011 #
b00000000000000000101000000000000 (
1/
#36
0/
#37
b001100 #
b00000000000000001010000000000000 (
1/
#38
0/
#39
b001101 #
b00000000000000010100000000000000 (
1/
#40
0/
#41
b001110 #
b00000000000000101000000000000000 (
1/
#42
0/
#43
b001111 #
b00000000000001010000000000000000 (
1/
#44
0/
#45
b010000 #
b00000000000010100000000000000000 (
1/
#46
0/
#47
b010001 #
b00000000000101000000000000000000 (
1/
#48
0/
#49
b010010 #
b00000000001010000000000000000000 (
1/
#50
0/
#51
b010011 #
b00000000010100000000000000000000 (
1/
#52
0/
#53
b010100 #
b00000000101000000000000000000000 (
1/
#54
0/
#55
b010101 #
b00000001010000000000000000000000 (
1/
#56
0/
#57
b010110 #
b00000010100000000000000000000000 (
1/
#58
0/
#59
b010111 #
b00000101000000000000000000000000 (
1/
#60
0/
#61
b011000 #
b00001010000000000000000000000000 (
1/
#62
0/
#63
b011001 #
b00010100000000000000000000000000 (
1/
#64
0/
#65
b011010 #
b00101000000000000000000000000000 (
1/
#66
0/
#67
b011011 #
b01010000000000000000000000000000 (
1/
#68
0/
#69
b011100 #
b10100000000000000000000000000000 (
1/
#70
0/
#71
b011101 #
b000000000000000000000000000000001 %
b01000000000000000000000000000000 (
b000000000000000000000000000000001 -
1/
#72
0/
#73
b011110 #
b000000000000000000000000000000000 %
b00000000000000000000000000000001 '
b10000000000000000000000000000000 (
b000000000000000000000000000000010 -
1/
#74
0/
#75
b011111 #
b000000000000000000000000000000001 %
b00000000000000000000000000000010 '
b00000000000000000000000000000000 (
b000000000000000000000000000000001 -
1/
b11 6
#76
0/
#77
b100000 #
b11 $
b000000000000000000000000000000000 %
b00000000000000000000000000000101 '
b000000000000000000000000000000010 -
1/
b00 6
#78
0/
#79
b00 $
1/
b00000000000000000000000000000101 4
15
#80
0/
10
b11111111111111111111111111110001 2
b00000000000000000000000000000011 3
b01 6
#81
b000000 #
b01 $
1/
05
b10 6
#82
0/
00
#83
b10 $
b00000000000000000000000000000000 '
b00000000000000000000000000001111 (
b000000000000000000000000000000011 )
1+
1,
1/
#84
0/
#85
b000001 #
b00000000000000000000000000011110 (
b000000000000000000000000000000000 -
1/
#86
0/
#87
b000010 #
b00000000000000000000000000111100 (
1/
#88
0/
#89
b000011 #
b00000000000000000000000001111000 (
1/
#90
0/
#91
b000100 #
b00000000000000000000000011110000 (
1/
#92
0/
#93
b000101 #
b00000000000000000000000111100000 (
1/
#94
0/
#95
b000110 #
b00000000000000000000001111000000 (
1/
#96
0/
#97
b000111 #
b00000000000000000000011110000000 (
1/
#98
0/
#99
b001000 #
b00000000000000000000111100000000 (
1/
#100
0/
#101
b001001 #
b00000000000000000001111000000000 (
1/
#102
0/
#103
b001010 #
b00000000000000000011110000000000 (
1/
#104
0/
#105
b001011 #
b00000000000000000111100000000000 (
1/
#106
0/
#107
b001100 #
b00000000000000001111000000000000 (
1/
#108
0/
#109
b001101 #
b00000000000000011110000000000000 (
1/
#110
0/
#111
b001110 #
b00000000000000111100000000000000 (
1/
#112
0/
#113
b001111 #
b00000000000001111000000000000000 (
1/
#114
0/
#115
b010000 #
b00000000000011110000000000000000 (
1/
#116
0/
#117
b010001 #
b00000000000111100000000000000000 (
1/
#118
0/
#119
b010010 #
b00000000001111000000000000000000 (
1/
#120
0/
#121
b010011 #
b00000000011110000000000000000000 (
1/
#122
0/
#123
b010100 #
b00000000111100000000000000000000 (
1/
#124
0/
#125
b010101 #
b00000001111000000000000000000000 (
1/
#126
0/
#127
b010110 #
b00000011110000000000000000000000 (
1/
#128
0/
#129
b010111 #
b00000111100000000000000000000000 (
1/
#130
0/
#131
b011000 #
b00001111000000000000000000000000 (
1/
#132
0/
#133
b011001 #
b00011110000000000000000000000000 (
1/
#134
0/
#135
b011010 #
b00111100000000000000000000000000 (
1/
#136
0/
#137
b011011 #
b01111000000000000000000000000000 (
1/
#138
0/
#139
b011100 #
b11110000000000000000000000000000 (
1/
#140
0/
#141
b011101 #
b000000000000000000000000000000001 %
b11100000000000000000000000000000 (
b000000000000000000000000000000001 -
1/
#142
0/
#143
b011110 #
b000000000000000000000000000000000 %
b00000000000000000000000000000001 '
b11000000000000000000000000000000 (
b000000000000000000000000000000011 -
1/
#144
0/
#145
b011111 #
b000000000000000000000000000000001 %
b00000000000000000000000000000010 '
b10000000000000000000000000000000 (
b000000000000000000000000000000001 -
1/
b11 6
#146
0/
#147
b100000 #
b11 $
b000000000000000000000000000000000 %
b00000000000000000000000000000101 '
b00000000000000000000000000000000 (
b000000000000000000000000000000011 -
1/
b00 6
#148
0/
#149
b00 $
1/
b11111111111111111111111111111011 4
15
#150
0/
10
b00000000000000000000000000000111 2
b00000000000000000000000000000010 3
b01 6
#151
b000000 #
b01 $
1/
05
b10 6
#152
0/
00
#153
b10 $
b00000000000000000000000000000000 '
b00000000000000000000000000000111 (
b000000000000000000000000000000010 )
0+
0,
1/
#154
0/
#155
b000001 #
b00000000000000000000000000001110 (
b000000000000000000000000000000000 -
1/
#156
0/
#157
b000010 #
b00000000000000000000000000011100 (
1/
#158
0/
#159
b000011 #
b00000000000000000000000000111000 (
1/
#160
0/
#161
b000100 #
b00000000000000000000000001110000 (
1/
#162
0/
#163
b000101 #
b00000000000000000000000011100000 (
1/
#164
0/
#165
b000110 #
b00000000000000000000000111000000 (
1/
#166
0/
#167
b000111 #
b00000000000000000000001110000000 (
1/
#168
0/
#169
b001000 #
b00000000000000000000011100000000 (
1/
#170
0/
#171
b001001 #
b00000000000000000000111000000000 (
1/
#172
0/
#173
b001010 #
b00000000000000000001110000000000 (
1/
#174
0/
#175
b001011 #
b00000000000000000011100000000000 (
1/
#176
0/
#177
b001100 #
b00000000000000000111000000000000 (
1/
#178
0/
#179
b001101 #
b00000000000000001110000000000000 (
1/
#180
0/
#181
b001110 #
b00000000000000011100000000000000 (
1/
#182
0/
#183
b001111 #
b00000000000000111000000000000000 (
1/
#184
0/
#185
b010000 #
b00000000000001110000000000000000 (
1/
#186
0/
#187
b010001 #
b00000000000011100000000000000000 (
1/
#188
0/
#189
b010010 #
b00000000000111000000000000000000 (
1/
#190
0/
#191
b010011 #
b00000000001110000000000000000000 (
1/
#192
0/
#193
b010100 #
b00000000011100000000000000000000 (
1/
#194
0/
#195
b010101 #
b00000000111000000000000000000000 (
1/
#196
0/
#197
b010110 #
b00000001110000000000000000000000 (
1/
#198
0/
#199
b010111 #
b00000011100000000000000000000000 (
1/
#200
0/
#201
b011000 #
b00000111000000000000000000000000 (
1/
#202
0/
#203
b011001 #
b00001110000000000000000000000000 (
1/
#204
0/
#205
b011010 #
b00011100000000000000000000000000 (
1/
#206
0/
#207
b011011 #
b00111000000000000000000000000000 (
1/
#208
0/
#209
b011100 #
b01110000000000000000000000000000 (
1/
#210
0/
#211
b011101 #
b11100000000000000000000000000000 (
1/
#212
0/
#213
b011110 #
b000000000000000000000000000000001 %
b11000000000000000000000000000000 (
b000000000000000000000000000000001 -
1/
#214
0/
#215
b011111 #
b00000000000000000000000000000001 '
b10000000000000000000000000000000 (
b000000000000000000000000000000011 -
1/
b11 6
#216
0/
#217
b100000 #
b11 $
b00000000000000000000000000000011 '
b00000000000000000000000000000000 (
1/
b00 6
#218
0/
#219
b00 $
1/
b00000000000000000000000000000011 4
15
#220
0/
10
b11111111111111111111111111110000 2
b11111111111111111111111111111100 3
b01 6
#221
b000000 #
b01 $
1/
05
b10 6
#222
0/
00
#223
b10 $
b000000000000000000000000000000000 %
b00000000000000000000000000000000 '
b00000000000000000000000000010000 (
b000000000000000000000000000000100 )
1,
1/
#224
0/
#225
b000001 #
b00000000000000000000000000100000 (
b000000000000000000000000000000000 -
1/
#226
0/
#227
b000010 #
b00000000000000000000000001000000 (
1/
#228
0/
#229
b000011 #
b00000000000000000000000010000000 (
1/
#230
0/
#231
b000100 #
b00000000000000000000000100000000 (
1/
#232
0/
#233
b000101 #
b00000000000000000000001000000000 (
1/
#234
0/
#235
b000110 #
b00000000000000000000010000000000 (
1/
#236
0/
#237
b000111 #
b00000000000000000000100000000000 (
1/
#238
0/
#239
b001000 #
b00000000000000000001000000000000 (
1/
#240
0/
#241
b001001 #
b00000000000000000010000000000000 (
1/
#242
0/
#243
b001010 #
b00000000000000000100000000000000 (
1/
#244
0/
#245
b001011 #
b00000000000000001000000000000000 (
1/
#246
0/
#247
b001100 #
b00000000000000010000000000000000 (
1/
#248
0/
#249
b001101 #
b00000000000000100000000000000000 (
1/
#250
0/
#251
b001110 #
b00000000000001000000000000000000 (
1/
#252
0/
#253
b001111 #
b00000000000010000000000000000000 (
1/
#254
0/
#255
b010000 #
b00000000000100000000000000000000 (
1/
#256
0/
#257
b010001 #
b00000000001000000000000000000000 (
1/
#258
0/
#259
b010010 #
b00000000010000000000000000000000 (
1/
#260
0/
#261
b010011 #
b00000000100000000000000000000000 (
1/
#262
0/
#263
b010100 #
b00000001000000000000000000000000 (
1/
#264
0/
#265
b010101 #
b00000010000000000000000000000000 (
1/
#266
0/
#267
b010110 #
b00000100000000000000000000000000 (
1/
#268
0/
#269
b010111 #
b00001000000000000000000000000000 (
1/
#270
0/
#271
b011000 #
b00010000000000000000000000000000 (
1/
#272
0/
#273
b011001 #
b00100000000000000000000000000000 (
1/
#274
0/
#275
b011010 #
b01000000000000000000000000000000 (
1/
#276
0/
#277
b011011 #
b10000000000000000000000000000000 (
1/
#278
0/
#279
b011100 #
b000000000000000000000000000000001 %
b00000000000000000000000000000000 (
b000000000000000000000000000000001 -
1/
#280
0/
#281
b011101 #
b000000000000000000000000000000010 %
b000000000000000000000000000000010 -
1/
#282
0/
#283
b011110 #
b000000000000000000000000000000000 %
b00000000000000000000000000000001 '
b000000000000000000000000000000100 -
1/
#284
0/
#285
b011111 #
b00000000000000000000000000000010 '
b000000000000000000000000000000000 -
1/
b11 6
#286
0/
#287
b100000 #
b11 $
b00000000000000000000000000000100 '
1/
b00 6
#288
0/
#289
b00 $
1/
b00000000000000000000000000000100 4
15
#290
0/
10
b01 1
b00000000000000000000000000001010 2
b00000000000000000000000000000010 3
b01 6
07
#291
b000000 #
b01 $
1/
05
b10 6
#292
0/
00
#293
b10 $
b00000000000000000000000000000000 '
b00000000000000000000000000001010 (
b000000000000000000000000000000010 )
0,
1/
#294
0/
#295
b000001 #
b00000000000000000000000000010100 (
1/
#296
0/
#297
b000010 #
b00000000000000000000000000101000 (
1/
#298
0/
#299
b000011 #
b00000000000000000000000001010000 (
1/
#300
0/
#301
b000100 #
b00000000000000000000000010100000 (
1/
#302
0/
#303
b000101 #
b00000000000000000000000101000000 (
1/
#304
0/
#305
b000110 #
b00000000000000000000001010000000 (
1/
#306
0/
#307
b000111 #
b00000000000000000000010100000000 (
1/
#308
0/
#309
b001000 #
b00000000000000000000101000000000 (
1/
#310
0/
#311
b001001 #
b00000000000000000001010000000000 (
1/
#312
0/
#313
b001010 #
b00000000000000000010100000000000 (
1/
#314
0/
#315
b001011 #
b00000000000000000101000000000000 (
1/
#316
0/
#317
b001100 #
b00000000000000001010000000000000 (
1/
#318
0/
#319
b001101 #
b00000000000000010100000000000000 (
1/
#320
0/
#321
b001110 #
b00000000000000101000000000000000 (
1/
#322
0/
#323
b001111 #
b00000000000001010000000000000000 (
1/
#324
0/
#325
b010000 #
b00000000000010100000000000000000 (
1/
#326
0/
#327
b010001 #
b00000000000101000000000000000000 (
1/
#328
0/
#329
b010010 #
b00000000001010000000000000000000 (
1/
#330
0/
#331
b010011 #
b00000000010100000000000000000000 (
1/
#332
0/
#333
b010100 #
b00000000101000000000000000000000 (
1/
#334
0/
#335
b010101 #
b00000001010000000000000000000000 (
1/
#336
0/
#337
b010110 #
b00000010100000000000000000000000 (
1/
#338
0/
#339
b010111 #
b00000101000000000000000000000000 (
1/
#340
0/
#341
b011000 #
b00001010000000000000000000000000 (
1/
#342
0/
#343
b011001 #
b00010100000000000000000000000000 (
1/
#344
0/
#345
b011010 #
b00101000000000000000000000000000 (
1/
#346
0/
#347
b011011 #
b01010000000000000000000000000000 (
1/
#348
0/
#349
b011100 #
b10100000000000000000000000000000 (
1/
#350
0/
#351
b011101 #
b000000000000000000000000000000001 %
b01000000000000000000000000000000 (
b000000000000000000000000000000001 -
1/
#352
0/
#353
b011110 #
b000000000000000000000000000000000 %
b00000000000000000000000000000001 '
b10000000000000000000000000000000 (
b000000000000000000000000000000010 -
1/
#354
0/
#355
b011111 #
b000000000000000000000000000000001 %
b00000000000000000000000000000010 '
b00000000000000000000000000000000 (
b000000000000000000000000000000001 -
1/
b11 6
#356
0/
#357
b100000 #
b11 $
b000000000000000000000000000000000 %
b00000000000000000000000000000101 '
b000000000000000000000000000000010 -
1/
b00 6
#358
0/
#359
b00 $
1/
b00000000000000000000000000000101 4
15
#360
0/
10
b11111111111111111111111111111111 2
b01 6
#361
b000000 #
b01 $
1/
05
b10 6
#362
0/
00
#363
b10 $
b00000000000000000000000000000000 '
b11111111111111111111111111111111 (
1/
#364
0/
#365
b000001 #
b000000000000000000000000000000001 %
b11111111111111111111111111111110 (
b000000000000000000000000000000001 -
1/
#366
0/
#367
b000010 #
b00000000000000000000000000000001 '
b11111111111111111111111111111100 (
b000000000000000000000000000000011 -
1/
#368
0/
#369
b000011 #
b00000000000000000000000000000011 '
b11111111111111111111111111111000 (
1/
#370
0/
#371
b000100 #
b00000000000000000000000000000111 '
b11111111111111111111111111110000 (
1/
#372
0/
#373
b000101 #
b00000000000000000000000000001111 '
b11111111111111111111111111100000 (
1/
#374
0/
#375
b000110 #
b00000000000000000000000000011111 '
b11111111111111111111111111000000 (
1/
#376
0/
#377
b000111 #
b00000000000000000000000000111111 '
b11111111111111111111111110000000 (
1/
#378
0/
#379
b001000 #
b00000000000000000000000001111111 '
b11111111111111111111111100000000 (
1/
#380
0/
#381
b001001 #
b00000000000000000000000011111111 '
b11111111111111111111111000000000 (
1/
#382
0/
#383
b001010 #
b00000000000000000000000111111111 '
b11111111111111111111110000000000 (
1/
#384
0/
#385
b001011 #
b00000000000000000000001111111111 '
b11111111111111111111100000000000 (
1/
#386
0/
#387
b001100 #
b00000000000000000000011111111111 '
b11111111111111111111000000000000 (
1/
#388
0/
#389
b001101 #
b00000000000000000000111111111111 '
b11111111111111111110000000000000 (
1/
#390
0/
#391
b001110 #
b00000000000000000001111111111111 '
b11111111111111111100000000000000 (
1/
#392
0/
#393
b001111 #
b00000000000000000011111111111111 '
b11111111111111111000000000000000 (
1/
#394
0/
#395
b010000 #
b00000000000000000111111111111111 '
b11111111111111110000000000000000 (
1/
#396
0/
#397
b010001 #
b00000000000000001111111111111111 '
b11111111111111100000000000000000 (
1/
#398
0/
#399
b010010 #
b00000000000000011111111111111111 '
b11111111111111000000000000000000 (
1/
#400
0/
#401
b010011 #
b00000000000000111111111111111111 '
b11111111111110000000000000000000 (
1/
#402
0/
#403
b010100 #
b00000000000001111111111111111111 '
b11111111111100000000000000000000 (
1/
#404
0/
#405
b010101 #
b00000000000011111111111111111111 '
b11111111111000000000000000000000 (
1/
#406
0/
#407
b010110 #
b00000000000111111111111111111111 '
b11111111110000000000000000000000 (
1/
#408
0/
#409
b010111 #
b00000000001111111111111111111111 '
b11111111100000000000000000000000 (
1/
#410
0/
#411
b011000 #
b00000000011111111111111111111111 '
b11111111000000000000000000000000 (
1/
#412
0/
#413
b011001 #
b00000000111111111111111111111111 '
b11111110000000000000000000000000 (
1/
#414
0/
#415
b011010 #
b00000001111111111111111111111111 '
b11111100000000000000000000000000 (
1/
#416
0/
#417
b011011 #
b00000011111111111111111111111111 '
b11111000000000000000000000000000 (
1/
#418
0/
#419
b011100 #
b00000111111111111111111111111111 '
b11110000000000000000000000000000 (
1/
#420
0/
#421
b011101 #
b00001111111111111111111111111111 '
b11100000000000000000000000000000 (
1/
#422
0/
#423
b011110 #
b00011111111111111111111111111111 '
b11000000000000000000000000000000 (
1/
#424
0/
#425
b011111 #
b00111111111111111111111111111111 '
b10000000000000000000000000000000 (
1/
b11 6
#426
0/
#427
b100000 #
b11 $
b01111111111111111111111111111111 '
b00000000000000000000000000000000 (
1/
b00 6
#428
0/
#429
b00 $
1/
b01111111111111111111111111111111 4
15
#430
0/
10
b00000000000000000000000001100100 2
b00000000000000000000000000001010 3
b01 6
#431
b000000 #
b01 $
1/
05
b10 6
#432
0/
00
#433
b10 $
b000000000000000000000000000000000 %
b00000000000000000000000000000000 '
b00000000000000000000000001100100 (
b000000000000000000000000000001010 )
1/
#434
0/
#435
b000001 #
b00000000000000000000000011001000 (
b000000000000000000000000000000000 -
1/
#436
0/
#437
b000010 #
b00000000000000000000000110010000 (
1/
#438
0/
#439
b000011 #
b00000000000000000000001100100000 (
1/
#440
0/
#441
b000100 #
b00000000000000000000011001000000 (
1/
#442
0/
#443
b000101 #
b00000000000000000000110010000000 (
1/
#444
0/
#445
b000110 #
b00000000000000000001100100000000 (
1/
#446
0/
#447
b000111 #
b00000000000000000011001000000000 (
1/
#448
0/
#449
b001000 #
b00000000000000000110010000000000 (
1/
#450
0/
#451
b001001 #
b00000000000000001100100000000000 (
1/
#452
0/
#453
b001010 #
b00000000000000011001000000000000 (
1/
#454
0/
#455
b001011 #
b00000000000000110010000000000000 (
1/
#456
0/
#457
b001100 #
b00000000000001100100000000000000 (
1/
#458
0/
#459
b001101 #
b00000000000011001000000000000000 (
1/
#460
0/
#461
b001110 #
b00000000000110010000000000000000 (
1/
#462
0/
#463
b001111 #
b00000000001100100000000000000000 (
1/
#464
0/
#465
b010000 #
b00000000011001000000000000000000 (
1/
#466
0/
#467
b010001 #
b00000000110010000000000000000000 (
1/
#468
0/
#469
b010010 #
b00000001100100000000000000000000 (
1/
#470
0/
#471
b010011 #
b00000011001000000000000000000000 (
1/
#472
0/
#473
b010100 #
b00000110010000000000000000000000 (
1/
#474
0/
#475
b010101 #
b00001100100000000000000000000000 (
1/
#476
0/
#477
b010110 #
b00011001000000000000000000000000 (
1/
#478
0/
#479
b010111 #
b00110010000000000000000000000000 (
1/
#480
0/
#481
b011000 #
b01100100000000000000000000000000 (
1/
#482
0/
#483
b011001 #
b11001000000000000000000000000000 (
1/
#484
0/
#485
b011010 #
b000000000000000000000000000000001 %
b10010000000000000000000000000000 (
b000000000000000000000000000000001 -
1/
#486
0/
#487
b011011 #
b000000000000000000000000000000011 %
b00100000000000000000000000000000 (
b000000000000000000000000000000011 -
1/
#488
0/
#489
b011100 #
b000000000000000000000000000000110 %
b01000000000000000000000000000000 (
b000000000000000000000000000000110 -
1/
#490
0/
#491
b011101 #
b000000000000000000000000000000010 %
b00000000000000000000000000000001 '
b10000000000000000000000000000000 (
b000000000000000000000000000001100 -
1/
#492
0/
#493
b011110 #
b000000000000000000000000000000101 %
b00000000000000000000000000000010 '
b00000000000000000000000000000000 (
b000000000000000000000000000000101 -
1/
#494
0/
#495
b011111 #
b000000000000000000000000000000000 %
b00000000000000000000000000000101 '
b000000000000000000000000000001010 -
1/
b11 6
#496
0/
#497
b100000 #
b11 $
b00000000000000000000000000001010 '
b000000000000000000000000000000000 -
1/
b00 6
#498
0/
#499
b00 $
1/
b00000000000000000000000000001010 4
15
#500
0/
10
b10 1
b00000000000000000000000000001010 2
b00000000000000000000000000000011 3
b01 6
17
#501
b000000 #
b01 $
1/
05
b10 6
#502
0/
00
#503
b10 $
b00000000000000000000000000000000 '
b00000000000000000000000000001010 (
b000000000000000000000000000000011 )
1/
#504
0/
#505
b000001 #
b00000000000000000000000000010100 (
1/
#506
0/
#507
b000010 #
b00000000000000000000000000101000 (
1/
#508
0/
#509
b000011 #
b00000000000000000000000001010000 (
1/
#510
0/
#511
b000100 #
b00000000000000000000000010100000 (
1/
#512
0/
#513
b000101 #
b00000000000000000000000101000000 (
1/
#514
0/
#515
b000110 #
b00000000000000000000001010000000 (
1/
#516
0/
#517
b000111 #
b00000000000000000000010100000000 (
1/
#518
0/
#519
b001000 #
b00000000000000000000101000000000 (
1/
#520
0/
#521
b001001 #
b00000000000000000001010000000000 (
1/
#522
0/
#523
b001010 #
b00000000000000000010100000000000 (
1/
#524
0/
#525
b001011 #
b00000000000000000101000000000000 (
1/
#526
0/
#527
b001100 #
b00000000000000001010000000000000 (
1/
#528
0/
#529
b001101 #
b00000000000000010100000000000000 (
1/
#530
0/
#531
b001110 #
b00000000000000101000000000000000 (
1/
#532
0/
#533
b001111 #
b00000000000001010000000000000000 (
1/
#534
0/
#535
b010000 #
b00000000000010100000000000000000 (
1/
#536
0/
#537
b010001 #
b00000000000101000000000000000000 (
1/
#538
0/
#539
b010010 #
b00000000001010000000000000000000 (
1/
#540
0/
#541
b010011 #
b00000000010100000000000000000000 (
1/
#542
0/
#543
b010100 #
b00000000101000000000000000000000 (
1/
#544
0/
#545
b010101 #
b00000001010000000000000000000000 (
1/
#546
0/
#547
b010110 #
b00000010100000000000000000000000 (
1/
#548
0/
#549
b010111 #
b00000101000000000000000000000000 (
1/
#550
0/
#551
b011000 #
b00001010000000000000000000000000 (
1/
#552
0/
#553
b011001 #
b00010100000000000000000000000000 (
1/
#554
0/
#555
b011010 #
b00101000000000000000000000000000 (
1/
#556
0/
#557
b011011 #
b01010000000000000000000000000000 (
1/
#558
0/
#559
b011100 #
b10100000000000000000000000000000 (
1/
#560
0/
#561
b011101 #
b000000000000000000000000000000001 %
b01000000000000000000000000000000 (
b000000000000000000000000000000001 -
1/
#562
0/
#563
b011110 #
b000000000000000000000000000000010 %
b10000000000000000000000000000000 (
b000000000000000000000000000000010 -
1/
#564
0/
#565
b011111 #
b00000000000000000000000000000001 '
b00000000000000000000000000000000 (
b000000000000000000000000000000101 -
1/
b11 6
#566
0/
#567
b100000 #
b11 $
b000000000000000000000000000000001 %
b00000000000000000000000000000011 '
b000000000000000000000000000000100 -
1/
b00 6
#568
0/
#569
b00 $
1/
b00000000000000000000000000000001 4
15
#570
0/
10
b11111111111111111111111111110110 2
b01 6
#571
b000000 #
b01 $
1/
05
b10 6
#572
0/
00
#573
b10 $
b000000000000000000000000000000000 %
b00000000000000000000000000000000 '
b00000000000000000000000000001010 (
1+
1,
1/
#574
0/
#575
b000001 #
b00000000000000000000000000010100 (
b000000000000000000000000000000000 -
1/
#576
0/
#577
b000010 #
b00000000000000000000000000101000 (
1/
#578
0/
#579
b000011 #
b00000000000000000000000001010000 (
1/
#580
0/
#581
b000100 #
b00000000000000000000000010100000 (
1/
#582
0/
#583
b000101 #
b00000000000000000000000101000000 (
1/
#584
0/
#585
b000110 #
b00000000000000000000001010000000 (
1/
#586
0/
#587
b000111 #
b00000000000000000000010100000000 (
1/
#588
0/
#589
b001000 #
b00000000000000000000101000000000 (
1/
#590
0/
#591
b001001 #
b00000000000000000001010000000000 (
1/
#592
0/
#593
b001010 #
b00000000000000000010100000000000 (
1/
#594
0/
#595
b001011 #
b00000000000000000101000000000000 (
1/
#596
0/
#597
b001100 #
b00000000000000001010000000000000 (
1/
#598
0/
#599
b001101 #
b00000000000000010100000000000000 (
1/
#600
0/
#601
b001110 #
b00000000000000101000000000000000 (
1/
#602
0/
#603
b001111 #
b00000000000001010000000000000000 (
1/
#604
0/
#605
b010000 #
b00000000000010100000000000000000 (
1/
#606
0/
#607
b010001 #
b00000000000101000000000000000000 (
1/
#608
0/
#609
b010010 #
b00000000001010000000000000000000 (
1/
#610
0/
#611
b010011 #
b00000000010100000000000000000000 (
1/
#612
0/
#613
b010100 #
b00000000101000000000000000000000 (
1/
#614
0/
#615
b010101 #
b00000001010000000000000000000000 (
1/
#616
0/
#617
b010110 #
b00000010100000000000000000000000 (
1/
#618
0/
#619
b010111 #
b00000101000000000000000000000000 (
1/
#620
0/
#621
b011000 #
b00001010000000000000000000000000 (
1/
#622
0/
#623
b011001 #
b00010100000000000000000000000000 (
1/
#624
0/
#625
b011010 #
b00101000000000000000000000000000 (
1/
#626
0/
#627
b011011 #
b01010000000000000000000000000000 (
1/
#628
0/
#629
b011100 #
b10100000000000000000000000000000 (
1/
#630
0/
#631
b011101 #
b000000000000000000000000000000001 %
b01000000000000000000000000000000 (
b000000000000000000000000000000001 -
1/
#632
0/
#633
b011110 #
b000000000000000000000000000000010 %
b10000000000000000000000000000000 (
b000000000000000000000000000000010 -
1/
#634
0/
#635
b011111 #
b00000000000000000000000000000001 '
b00000000000000000000000000000000 (
b000000000000000000000000000000101 -
1/
b11 6
#636
0/
#637
b100000 #
b11 $
b000000000000000000000000000000001 %
b00000000000000000000000000000011 '
b000000000000000000000000000000100 -
1/
b00 6
#638
0/
#639
b00 $
1/
b11111111111111111111111111111111 4
15
#640
0/
10
b00000000000000000000000000000111 2
b00000000000000000000000000000010 3
b01 6
#641
b000000 #
b01 $
1/
05
b10 6
#642
0/
00
#643
b10 $
b000000000000000000000000000000000 %
b00000000000000000000000000000000 '
b00000000000000000000000000000111 (
b000000000000000000000000000000010 )
0+
0,
1/
#644
0/
#645
b000001 #
b00000000000000000000000000001110 (
b000000000000000000000000000000000 -
1/
#646
0/
#647
b000010 #
b00000000000000000000000000011100 (
1/
#648
0/
#649
b000011 #
b00000000000000000000000000111000 (
1/
#650
0/
#651
b000100 #
b00000000000000000000000001110000 (
1/
#652
0/
#653
b000101 #
b00000000000000000000000011100000 (
1/
#654
0/
#655
b000110 #
b00000000000000000000000111000000 (
1/
#656
0/
#657
b000111 #
b00000000000000000000001110000000 (
1/
#658
0/
#659
b001000 #
b00000000000000000000011100000000 (
1/
#660
0/
#661
b001001 #
b00000000000000000000111000000000 (
1/
#662
0/
#663
b001010 #
b00000000000000000001110000000000 (
1/
#664
0/
#665
b001011 #
b00000000000000000011100000000000 (
1/
#666
0/
#667
b001100 #
b00000000000000000111000000000000 (
1/
#668
0/
#669
b001101 #
b00000000000000001110000000000000 (
1/
#670
0/
#671
b001110 #
b00000000000000011100000000000000 (
1/
#672
0/
#673
b001111 #
b00000000000000111000000000000000 (
1/
#674
0/
#675
b010000 #
b00000000000001110000000000000000 (
1/
#676
0/
#677
b010001 #
b00000000000011100000000000000000 (
1/
#678
0/
#679
b010010 #
b00000000000111000000000000000000 (
1/
#680
0/
#681
b010011 #
b00000000001110000000000000000000 (
1/
#682
0/
#683
b010100 #
b00000000011100000000000000000000 (
1/
#684
0/
#685
b010101 #
b00000000111000000000000000000000 (
1/
#686
0/
#687
b010110 #
b00000001110000000000000000000000 (
1/
#688
0/
#689
b010111 #
b00000011100000000000000000000000 (
1/
#690
0/
#691
b011000 #
b00000111000000000000000000000000 (
1/
#692
0/
#693
b011001 #
b00001110000000000000000000000000 (
1/
#694
0/
#695
b011010 #
b00011100000000000000000000000000 (
1/
#696
0/
#697
b011011 #
b00111000000000000000000000000000 (
1/
#698
0/
#699
b011100 #
b01110000000000000000000000000000 (
1/
#700
0/
#701
b011101 #
b11100000000000000000000000000000 (
1/
#702
0/
#703
b011110 #
b000000000000000000000000000000001 %
b11000000000000000000000000000000 (
b000000000000000000000000000000001 -
1/
#704
0/
#705
b011111 #
b00000000000000000000000000000001 '
b10000000000000000000000000000000 (
b000000000000000000000000000000011 -
1/
b11 6
#706
0/
#707
b100000 #
b11 $
b00000000000000000000000000000011 '
b00000000000000000000000000000000 (
1/
b00 6
#708
0/
#709
b00 $
1/
b00000000000000000000000000000001 4
15
